# 1 "mcc_generated_files/device_config.c"
# 1 "<built-in>" 1
# 1 "<built-in>" 3
# 288 "<built-in>" 3
# 1 "<command line>" 1
# 1 "<built-in>" 2
# 1 "/opt/microchip/xc8/v2.00/pic/include/language_support.h" 1 3
# 2 "<built-in>" 2
# 1 "mcc_generated_files/device_config.c" 2
# 50 "mcc_generated_files/device_config.c"
#pragma config FEXTOSC = OFF
#pragma config RSTOSC = HFINT1
#pragma config CLKOUTEN = OFF
#pragma config CSWEN = ON
#pragma config FCMEN = ON


#pragma config MCLRE = ON
#pragma config PWRTE = OFF
#pragma config LPBOREN = OFF
#pragma config BOREN = ON
#pragma config BORV = LO



#pragma config ZCD = OFF

#pragma config PPS1WAY = ON
#pragma config STVREN = ON
#pragma config DEBUG = OFF


#pragma config WDTCPS = WDTCPS_31
#pragma config WDTE = OFF
#pragma config WDTCWS = WDTCWS_7
#pragma config WDTCCS = SC


#pragma config WRT = OFF
#pragma config SCANE = available
#pragma config LVP = ON


#pragma config CP = OFF
#pragma config CPD = OFF
# 84 "mcc_generated_files/device_config.c"

