___lwdiv@dividend 28 0 BANK0 1
__end_of_TMR2_ISR 1B20 0 CODE 0
___lldiv@counter 2D 0 BANK0 1
__size_of_do_I2C_SEND_RESTART_READ 0 0 ABS 0
_i2c1_driver_i2cISR D9 0 BANK1 1
___awdiv@counter 25 0 BANK0 1
_i2c1_driver_clearBusCollision 19FB 0 CODE 0
___lwdiv@counter 2D 0 BANK0 1
__CFG_WDTCCS$SC 0 0 ABS 0
_luminosity 67 0 BANK0 1
__CFG_WRT$OFF 0 0 ABS 0
main@minutes_elapsed 4D 0 BANK0 1
_PR2 28D 0 ABS 0
_i2c1_driver_getRXData 1A0F 0 CODE 0
__S0 800C 0 ABS 0
__S1 140 0 ABS 0
__S2 0 0 ABS 0
__S3 0 0 ABS 0
__end_of_read_config 154B 0 CODE 0
_SSP1STATbits 18F 0 ABS 0
__Hintentry 66 0 CODE 0
__Lintentry 4 0 CODE 0
read_registers@i 30 0 BANK0 1
__CFG_BOREN$ON 0 0 ABS 0
__pintentry 4 0 CODE 0
_sec 5B 0 BANK0 1
__end_of___awdiv 1276 0 CODE 0
_min 5F 0 BANK0 1
__end_of_i2c_setDataCompleteCallback 1B02 0 CODE 0
user_interface@tempUnits 3C 0 BANK0 1
_PMD0 796 0 ABS 0
_PMD1 797 0 ABS 0
_TMR1_DefaultInterruptHandler 13FA 0 CODE 0
DATAEE_WriteByte@bData 28 0 BANK0 1
_PMD2 798 0 ABS 0
_TMR2_DefaultInterruptHandler 7FF 0 CODE 0
_PMD3 799 0 ABS 0
_PMD4 79A 0 ABS 0
_PMD5 79B 0 ABS 0
_TMR2 28C 0 ABS 0
_LATA 16 0 ABS 0
_LATB 17 0 ABS 0
_LATC 18 0 ABS 0
_LATD 19 0 ABS 0
_LATE 1A 0 ABS 0
_WPUA F39 0 ABS 0
_WPUB F44 0 ABS 0
_WPUC F4F 0 ABS 0
_WPUD F5A 0 ABS 0
_WPUE F65 0 ABS 0
_T2PR 28D 0 ABS 0
__end_of_save_to_ring_buffer 8E3 0 CODE 0
read_time@checksum 34 0 BANK0 1
__size_of_wr1RegCompleteHandler 0 0 ABS 0
_temperatura 6B 0 BANK0 1
__end_of_PIN_MANAGER_Initialize 1EC2 0 CODE 0
__end_of_i2c1_driver_open 1B30 0 CODE 0
_s1_p 75 0 COMMON 1
_alaf 70 0 COMMON 1
_tala CF 0 BANK1 1
__end_of_TMR1_Initialize 1CAC 0 CODE 0
_alal CD 0 BANK1 1
_nreg EC 0 BANK1 1
__CFG_CSWEN$ON 0 0 ABS 0
_i2c_setBuffer 1B40 0 CODE 0
_main A6C 0 CODE 0
_i2c1_driver_startRX 19F2 0 CODE 0
_alat 72 0 COMMON 1
___sp 0 0 STACK 2
btemp 7E 0 ABS 0
_pmon D1 0 BANK1 1
start 66 0 CODE 0
_hour 63 0 BANK0 1
__size_of_memory_half_full 0 0 ABS 0
_TMR1_WriteTimer 1B51 0 CODE 0
__end_of_returnStop 19EC 0 CODE 0
___fltol@f1 20 0 BANK0 1
_do_I2C_SEND_RESTART_READ 1A2C 0 CODE 0
__size_of_show_lum 0 0 ABS 0
rd1RegCompleteHandler@p 7D 0 COMMON 1
rd2RegCompleteHandler@p 7D 0 COMMON 1
wr1RegCompleteHandler@p 7D 0 COMMON 1
wr2RegCompleteHandler@p 7D 0 COMMON 1
_TMR1H 20D 0 ABS 0
__end_of_INT_DefaultInterruptHandler 1AC4 0 CODE 0
__end_of_i2c1_driver_isNACK 1A7B 0 CODE 0
_TMR1L 20C 0 ABS 0
__size_of_do_I2C_RX 0 0 ABS 0
__size_of_do_I2C_TX 0 0 ABS 0
_ADREF 9A 0 ABS 0
_ADPCH 9E 0 ABS 0
_EUSART_Write 801 0 CODE 0
__size_of_EUSART_SetRxInterruptHandler 0 0 ABS 0
_TRISA 11 0 ABS 0
_T1CLK 211 0 ABS 0
_TRISB 12 0 ABS 0
_ADCAP 9B 0 ABS 0
_TRISC 13 0 ABS 0
_ADCLK 98 0 ABS 0
_ADPRE 9C 0 ABS 0
reset_vec 0 0 CODE 0
_TRISD 14 0 ABS 0
_ADACQ 9D 0 ABS 0
_TRISE 15 0 ABS 0
_OSCEN 891 0 ABS 0
_T1CON 20E 0 ABS 0
_T2CON 28E 0 ABS 0
_ADACT 99 0 ABS 0
_T2HLT 28F 0 ABS 0
wtemp0 7E 0 ABS 0
_ADCNT 10C 0 ABS 0
_T2TMR 28C 0 ABS 0
_ADRPT 10D 0 ABS 0
_T2RST 291 0 ABS 0
__end_of_i2c1_driver_stop 19E9 0 CODE 0
_RXPPS ECB 0 ABS 0
__size_of_save_max_min 0 0 ABS 0
__Hconfig 800C 0 CONFIG 0
__Lconfig 8007 0 CONFIG 0
__size_of_EUSART_is_rx_ready 0 0 ABS 0
_i2c1_driver_busCollisionISR DB 0 BANK1 1
TMR1_WriteTimer@timerVal 77 0 COMMON 1
__end_of_wr1RegCompleteHandler 1B89 0 CODE 0
__Hstringtext1 0 0 ABS 0
__Lstringtext1 0 0 ABS 0
?___llmod 20 0 BANK0 1
__pstringtext1 1879 0 STRCODE 0
?___awmod 20 0 BANK0 1
__size_of_do_I2C_IDLE 0 0 ABS 0
?___lwmod 20 0 BANK0 1
_i2c1_driver_restart 19E3 0 CODE 0
__size_of_do_I2C_RCEN 0 0 ABS 0
__size_of_DATAEE_ReadByte 0 0 ABS 0
__Hbigram 0 0 ABS 0
__Lbigram 0 0 ABS 0
__end_of_EUSART_SetRxInterruptHandler 1A96 0 CODE 0
serial_time@temp 40 0 BANK0 1
_eusartRxBuffer BD 0 BANK1 1
__end_of_PWM6_LoadDutyValue 1C3C 0 CODE 0
__Hram 0 0 ABS 0
__Lram 0 0 ABS 0
_memory_half_full 1AD9 0 CODE 0
_i2c1_driver_TXData 1A1B 0 CODE 0
i2c_setDataCompleteCallback@p 22 0 BANK0 1
_tsttc 8E3 0 CODE 0
__size_of_wr2RegCompleteHandler 0 0 ABS 0
__size_of_INT_SetInterruptHandler 0 0 ABS 0
__CFG_STVREN$ON 0 0 ABS 0
_do_I2C_DO_ACK 1A44 0 CODE 0
__size_of_i2c_busCollisionISR 0 0 ABS 0
__end_of_TMR2_Initialize 1BF2 0 CODE 0
__size_of_do_I2C_DO_ADDRESS_NACK 0 0 ABS 0
int$flags 7E 0 ABS 0
___xxtofl 154B 0 CODE 0
__size_of_save_config 0 0 ABS 0
_do_I2C_IDLE 1A26 0 CODE 0
__end_of_wr2RegCompleteHandler 1B76 0 CODE 0
__Hfunctab 0 0 ENTRY 0
__end_of_TMR2_Start 1A04 0 CODE 0
__Lfunctab 0 0 ENTRY 0
_i2c1_driver_resetBus 7FE 0 CODE 0
_ADCON0 93 0 ABS 0
__end_of_i2c_setBuffer 1B51 0 CODE 0
_ADCON1 94 0 ABS 0
main@min_temperatura 5A 0 BANK0 1
_INTERRUPT_InterruptManager 4 0 CODE 0
_ADCON2 95 0 ABS 0
_ADCON3 96 0 ABS 0
__end_of_i2c1_driver_getRXData 1A13 0 CODE 0
?___fltol 20 0 BANK0 1
DATAEE_ReadByte@bAdd 26 0 BANK0 1
__Hcommon 0 0 ABS 0
__Lcommon 0 0 ABS 0
_PIE0bits 716 0 ABS 0
_PIE3bits 719 0 ABS 0
__Heeprom_data 0 0 EEDATA 3
_PIE4bits 71A 0 ABS 0
__Leeprom_data 0 0 EEDATA 3
_PIR0bits 70C 0 ABS 0
_PIR3bits 70F 0 ABS 0
_PIR4bits 710 0 ABS 0
__end_of_EUSART_Read 1DAC 0 CODE 0
__size_ofi1_PWM6_LoadDutyValue 0 0 ABS 0
main@max_temperatura 57 0 BANK0 1
_LATAbits 16 0 ABS 0
_show_lum 1001 0 CODE 0
___int_sp 0 0 STACK 2
__size_of_do_I2C_RESET 0 0 ABS 0
__CFG_CLKOUTEN$OFF 0 0 ABS 0
_ADACCH 91 0 ABS 0
__end_of_i2c1_driver_TXData 1A20 0 CODE 0
__size_of_read_registers 0 0 ABS 0
_ANSELA F38 0 ABS 0
__end_of_i2c_busCollisionISR 1A17 0 CODE 0
_EUSART_SetRxInterruptHandler 1A8D 0 CODE 0
__size_of_setCallBack 0 0 ABS 0
_ANSELB F43 0 ABS 0
_ODCONA F3A 0 ABS 0
_RC1REG 119 0 ABS 0
?___lldiv 20 0 BANK0 1
_ANSELC F4E 0 ABS 0
_ODCONB F45 0 ABS 0
_digitalWrite 114A 0 CODE 0
_TX1REG 11A 0 ABS 0
__CFG_WDTCPS$WDTCPS_31 0 0 ABS 0
_ANSELD F59 0 ABS 0
_RC1STA 11D 0 ABS 0
_ADACCL 90 0 ABS 0
_ODCONC F50 0 ABS 0
_ANSELE F64 0 ABS 0
_T1GATE 210 0 ABS 0
?___awdiv 20 0 BANK0 1
_ODCOND F5B 0 ABS 0
_TX1STA 11E 0 ABS 0
_ODCONE F66 0 ABS 0
?___lwdiv 26 0 BANK0 1
_ADLTHH 10F 0 ABS 0
_ADUTHH 111 0 ABS 0
_ADRESH 8D 0 ABS 0
_rdBlkRegCompleteHandler 1C3C 0 CODE 0
__size_of_EUSART_Initialize 0 0 ABS 0
_ADERRH 117 0 ABS 0
__CFG_RSTOSC$HFINT1 0 0 ABS 0
_ADLTHL 10E 0 ABS 0
_T1GCON 20F 0 ABS 0
_ADUTHL 110 0 ABS 0
__Habs1 0 0 ABS 0
__Labs1 0 0 ABS 0
_ADRESL 8C 0 ABS 0
__Hsfr0 0 0 ABS 0
_ADERRL 116 0 ABS 0
__Lsfr0 0 0 ABS 0
__Hsfr1 0 0 ABS 0
__Lsfr1 0 0 ABS 0
_ADSTAT 97 0 ABS 0
__Hsfr2 0 0 ABS 0
__Lsfr2 0 0 ABS 0
__Hsfr3 0 0 ABS 0
__ptext100 1BAF 0 CODE 0
_OSCFRQ 893 0 ABS 0
__Lsfr3 0 0 ABS 0
_RC3PPS F23 0 ABS 0
_RC4PPS F24 0 ABS 0
__Hsfr4 0 0 ABS 0
_RA6PPS F16 0 ABS 0
_RC6PPS F26 0 ABS 0
__Lsfr4 0 0 ABS 0
__Hsfr5 0 0 ABS 0
__Lsfr5 0 0 ABS 0
__Hsfr6 0 0 ABS 0
__Lsfr6 0 0 ABS 0
__end_of_setNumber 16F0 0 CODE 0
__Hsfr7 0 0 ABS 0
__end_of_i2c_ISR 1DD7 0 CODE 0
__Lsfr7 0 0 ABS 0
__Hsfr8 0 0 ABS 0
__Lsfr8 0 0 ABS 0
_INTPPS E90 0 ABS 0
__end_of_EUSART_Write 80F 0 CODE 0
WriteI2C@data_out 21 0 BANK0 1
__Hsfr9 0 0 ABS 0
__Lsfr9 0 0 ABS 0
__end_of_TMR1_SetInterruptHandler 1AB1 0 CODE 0
_valid_reg D5 0 BANK1 1
serial_time@auxi 38 0 BANK0 1
__ptext101 1A20 0 CODE 0
_DATAEE_ReadByte 1B30 0 CODE 0
_user_interface CBC 0 CODE 0
__ptext102 1AE6 0 CODE 0
PWM6_LoadDutyValue@dutyValue 20 0 BANK0 1
__end_of___fltol 13FA 0 CODE 0
_read_time 12E3 0 CODE 0
__size_of_mssp1_clearIRQ 0 0 ABS 0
main@last_luminosity 52 0 BANK0 1
__ptext103 1ABA 0 CODE 0
__ptext104 1CAC 0 CODE 0
__size_of_ledsSetLow 0 0 ABS 0
_current_time$3858 2E 0 BANK0 1
__end_of___awmod 10EB 0 CODE 0
i1PWM6_LoadDutyValue@dutyValue 77 0 COMMON 1
_INT_SetInterruptHandler 1A96 0 CODE 0
__end_of_EXT_INT_Initialize 1B10 0 CODE 0
_led_state 76 0 COMMON 1
__size_of_DATAEE_WriteByte 0 0 ABS 0
__size_of_current_time 0 0 ABS 0
__Hcode 0 0 ABS 0
__Lcode 0 0 ABS 0
__size_of_i2c1_driver_open 0 0 ABS 0
__size_of_do_I2C_DO_ACK 0 0 ABS 0
user_interface@config_state 42 0 BANK0 1
stackhi 23EF 0 ABS 0
ledsSetLow@num 24 0 BANK0 1
__HcstackBANK0 0 0 ABS 0
__LcstackBANK0 0 0 ABS 0
__pcstackBANK0 20 0 BANK0 1
___awmod@sign 26 0 BANK0 1
stacklo 20C0 0 ABS 0
__Hstringtext2 0 0 ABS 0
__Lstringtext2 0 0 ABS 0
__Hinit 66 0 CODE 0
__Linit 66 0 CODE 0
___wmul 1CCE 0 CODE 0
__pstringtext2 1800 0 STRCODE 0
__end_of_main CBC 0 CODE 0
__size_of_ReadI2C 0 0 ABS 0
show_lum@lum 2E 0 BANK0 1
__end_of_INT_SetInterruptHandler 1A9F 0 CODE 0
__end_of_i2c_restartWrite 19F2 0 CODE 0
__Htext 0 0 ABS 0
__Ltext 0 0 ABS 0
__end_of_ADCC_GetSingleConversion 1C23 0 CODE 0
__end_of_TMR2_SetInterruptHandler 1ABA 0 CODE 0
___wmul@multiplier 20 0 BANK0 1
__CFG_WDTCWS$WDTCWS_7 0 0 ABS 0
?___xxtofl 20 0 BANK0 1
__CFG_LVP$ON 0 0 ABS 0
i2c_setBuffer@bufferSize 77 0 COMMON 1
__size_of_do_I2C_DO_NACK_RESTART 0 0 ABS 0
_rd1RegCompleteHandler 1B89 0 CODE 0
_rd2RegCompleteHandler 1B9C 0 CODE 0
end_of_initialization 98 0 CODE 0
_setNumber 1600 0 CODE 0
read_time@aux_min 38 0 BANK0 1
_wr1RegCompleteHandler 1B76 0 CODE 0
_wr2RegCompleteHandler 1B63 0 CODE 0
___awdiv@sign 26 0 BANK0 1
__CFG_FEXTOSC$OFF 0 0 ABS 0
i2c1_driver_TXData@d 77 0 COMMON 1
__size_of_i2c1_driver_sendNACK 0 0 ABS 0
__size_of_read_config 0 0 ABS 0
_TMR1_StartTimer 19FE 0 CODE 0
_TMR2_StartTimer 1A17 0 CODE 0
__size_of_i2c1_driver_isNACK 0 0 ABS 0
_EXT_INT_Initialize 1B02 0 CODE 0
___wmul@multiplicand 22 0 BANK0 1
_OSCCON1 88D 0 ABS 0
__Hsfr10 0 0 ABS 0
__Lsfr10 0 0 ABS 0
__Hsfr20 0 0 ABS 0
__Lsfr20 0 0 ABS 0
__Hsfr30 0 0 ABS 0
__Hsfr11 0 0 ABS 0
__Lsfr30 0 0 ABS 0
__Lsfr11 0 0 ABS 0
_NVMCON2 81F 0 ABS 0
_OSCCON3 88F 0 ABS 0
__Hsfr21 0 0 ABS 0
__HnvBANK1 0 0 ABS 0
__Lsfr21 0 0 ABS 0
__LnvBANK1 0 0 ABS 0
__Hsfr31 0 0 ABS 0
__Hsfr12 0 0 ABS 0
__Lsfr31 0 0 ABS 0
__Lsfr12 0 0 ABS 0
_do_I2C_DO_NACK_STOP 1A4A 0 CODE 0
serial_time@aux_h 3A 0 BANK0 1
serial_time@aux_m 3C 0 BANK0 1
__Hsfr22 0 0 ABS 0
__Lsfr22 0 0 ABS 0
__pnvBANK1 E0 0 BANK1 1
__Hsfr13 0 0 ABS 0
__Lsfr13 0 0 ABS 0
__size_of_rd1RegCompleteHandler 0 0 ABS 0
__end_of_user_interface 1000 0 CODE 0
__Hsfr23 0 0 ABS 0
__Lsfr23 0 0 ABS 0
setNumber@end 28 0 BANK0 1
__size_of_user_interface 0 0 ABS 0
__Hsfr14 0 0 ABS 0
__Lsfr14 0 0 ABS 0
__Hsfr24 0 0 ABS 0
_do_I2C_TX_EMPTY 1E08 0 CODE 0
__Lsfr24 0 0 ABS 0
__Hsfr15 0 0 ABS 0
__Lsfr15 0 0 ABS 0
__end_of_do_I2C_TX_EMPTY 1E42 0 CODE 0
__Hsfr25 0 0 ABS 0
EUSART_Read@readValue 21 0 BANK0 1
__Lsfr25 0 0 ABS 0
__size_of_i2c1_driver_restart 0 0 ABS 0
read_config@aux_alaf 3D 0 BANK0 1
read_config@aux_tala 37 0 BANK0 1
__Hsfr16 0 0 ABS 0
__Lsfr16 0 0 ABS 0
read_config@aux_alal 3B 0 BANK0 1
__HdataBANK1 0 0 ABS 0
__Hsfr26 0 0 ABS 0
__LdataBANK1 0 0 ABS 0
__Lsfr26 0 0 ABS 0
read_config@aux_alat 39 0 BANK0 1
read_config@aux_pmon 35 0 BANK0 1
__Hsfr17 0 0 ABS 0
__Lsfr17 0 0 ABS 0
__Hsfr27 0 0 ABS 0
_INT_CallBack 1AE6 0 CODE 0
__Lsfr27 0 0 ABS 0
__pdataBANK1 EA 0 BANK1 1
rdBlkRegCompleteHandler@p 7D 0 COMMON 1
__Hsfr18 0 0 ABS 0
__Lsfr18 0 0 ABS 0
__Hsfr28 0 0 ABS 0
_ReadI2C 1CF1 0 CODE 0
_SSP1ADD 18D 0 ABS 0
__Lsfr28 0 0 ABS 0
_do_I2C_SEND_RESTART 1A38 0 CODE 0
__Hsfr19 0 0 ABS 0
__Lsfr19 0 0 ABS 0
__Hsfr29 0 0 ABS 0
__Lsfr29 0 0 ABS 0
save_to_ring_buffer@temperature 2A 0 BANK0 1
__size_of_i2c1_driver_stop 0 0 ABS 0
_TRISCbits 13 0 ABS 0
_PORTBbits D 0 ABS 0
user_interface@aux 44 0 BANK0 1
_PORTCbits E 0 ABS 0
_PWM6DCH 38D 0 ABS 0
_clear_max DD 0 BANK1 1
_T1CONbits 20E 0 ABS 0
__Hstrings 0 0 ABS 0
_T2CONbits 28E 0 ABS 0
__Lstrings 0 0 ABS 0
__size_of_i2c_restartWrite 0 0 ABS 0
_T2HLTbits 28F 0 ABS 0
_SLRCONA F3B 0 ABS 0
__size_of_save_to_ring_buffer 0 0 ABS 0
_T2RSTbits 291 0 ABS 0
_EUSART_Read 1D84 0 CODE 0
_SLRCONB F46 0 ABS 0
_PWM6DCL 38C 0 ABS 0
__end_of_i2c1_driver_sendACK 1A0B 0 CODE 0
_SLRCONC F51 0 ABS 0
_SP1BRGH 11C 0 ABS 0
_SLRCOND F5C 0 ABS 0
_SSP1BUF 18C 0 ABS 0
__end_of_memory_half_full 1AE6 0 CODE 0
_SYSTEM_Initialize 1C71 0 CODE 0
__end_of_setCallBack 1D84 0 CODE 0
_SLRCONE F67 0 ABS 0
_mssp1_setIRQ 19F5 0 CODE 0
_NVMADRH 81B 0 ABS 0
_SP1BRGL 11B 0 ABS 0
_mssp1_clearIRQ 19F8 0 CODE 0
_NVMDATH 81D 0 ABS 0
_OSCTUNE 892 0 ABS 0
_EUSART_Initialize 1C56 0 CODE 0
__size_of_i2c1_driver_resetBus 0 0 ABS 0
_PWM6CON 38E 0 ABS 0
_ADPREVH 8F 0 ABS 0
__end_of_returnReset 19EF 0 CODE 0
_SSP1MSK 18E 0 ABS 0
_NVMADRL 81A 0 ABS 0
__Hbank0 0 0 ABS 0
_ADFLTRH 115 0 ABS 0
__Lbank0 0 0 ABS 0
_NVMDATL 81C 0 ABS 0
__Hbank1 0 0 ABS 0
__Lbank1 0 0 ABS 0
_ADSTPTH 113 0 ABS 0
__end_of_do_I2C_SEND_RESTART_WRITE 1A38 0 CODE 0
__Hbank2 0 0 ABS 0
__Lbank2 0 0 ABS 0
_TMR1_SetInterruptHandler 1AA8 0 CODE 0
__Hbank3 0 0 ABS 0
_TMR2_SetInterruptHandler 1AB1 0 CODE 0
__Lbank3 0 0 ABS 0
___latbits 2 0 ABS 0
_ADPREVL 8E 0 ABS 0
__Hbank4 0 0 ABS 0
_ADFLTRL 114 0 ABS 0
__Lbank4 0 0 ABS 0
__Hbank5 0 0 ABS 0
__Lbank5 0 0 ABS 0
_led_to_blink EE 0 BANK1 1
__Hpowerup 0 0 CODE 0
__Lpowerup 0 0 CODE 0
_ADSTPTL 112 0 ABS 0
__Hbank6 0 0 ABS 0
__Lbank6 0 0 ABS 0
_do_I2C_SEND_ADR_READ 1AC4 0 CODE 0
__Hbank7 0 0 ABS 0
__Lbank7 0 0 ABS 0
__end_of_ledsSetLow 1D38 0 CODE 0
__Hbank8 0 0 ABS 0
_ADCC_GetSingleConversion 1C0A 0 CODE 0
__Lbank8 0 0 ABS 0
read_registers@wanted_index 2A 0 BANK0 1
__size_of_TMR1_WriteTimer 0 0 ABS 0
_i2c_busCollisionISR 1A13 0 CODE 0
_NVMCON1bits 81E 0 ABS 0
__Hbank9 0 0 ABS 0
__size_of_rd2RegCompleteHandler 0 0 ABS 0
__Lbank9 0 0 ABS 0
user_interface@auxMin 38 0 BANK0 1
_do_I2C_RCEN 1A62 0 CODE 0
__end_of_current_time 2000 0 CODE 0
main@first 54 0 BANK0 1
__ptext1 CBC 0 CODE 0
_INT_ISR 1A20 0 CODE 0
__ptext2 1600 0 CODE 0
_i2c_ISR 1DAC 0 CODE 0
__ptext3 1D14 0 CODE 0
__ptext4 114A 0 CODE 0
__ptext5 1C23 0 CODE 0
__ptext6 1F06 0 CODE 0
__ptext7 11AA 0 CODE 0
__end_of_PWM6_Initialize 1AD9 0 CODE 0
__end_of_EUSART_Initialize 1C71 0 CODE 0
__ptext8 108D 0 CODE 0
_returnReset 19EC 0 CODE 0
__ptext9 8E3 0 CODE 0
__Hclrtext 0 0 ABS 0
__Lclrtext 0 0 ABS 0
setCallBack@cb 77 0 COMMON 1
__Hstringtext3 0 0 ABS 0
__Lstringtext3 0 0 ABS 0
_SSP1CLKPPS EC5 0 ABS 0
__pstringtext3 182F 0 STRCODE 0
read_registers@n 28 0 BANK0 1
_TMR1_InterruptHandler E6 0 BANK1 1
_TMR2_InterruptHandler E2 0 BANK1 1
user_interface@hourTens 3E 0 BANK0 1
_SSP1DATPPS EC6 0 ABS 0
_do_I2C_SEND_ADR_WRITE 1A84 0 CODE 0
__end_of_DATAEE_WriteByte 1D5D 0 CODE 0
__size_of_INT_DefaultInterruptHandler 0 0 ABS 0
_EUSART_RxDefaultInterruptHandler E4 0 BANK1 1
__size_of_i2c1_driver_getRXData 0 0 ABS 0
__end_of__initialization 98 0 CODE 0
__size_of_digitalWrite 0 0 ABS 0
user_interface@auxHora 36 0 BANK0 1
__size_of___xxtofl 0 0 ABS 0
__size_of_TMR1_SetInterruptHandler 0 0 ABS 0
__end_of___lwdiv 1F06 0 CODE 0
read_config@checksum 33 0 BANK0 1
_INT_DefaultInterruptHandler 1ABA 0 CODE 0
serial_time@eom 41 0 BANK0 1
__end_of_do_I2C_DO_NACK_RESTART 1A56 0 CODE 0
save_max_min@temp_min 2C 0 BANK0 1
save_max_min@temp_max 2A 0 BANK0 1
__size_of_i2c1_driver_TXData 0 0 ABS 0
_save_max_min 16F0 0 CODE 0
__end_of_show_lum 1038 0 CODE 0
_do_I2C_DO_NACK_RESTART 1A50 0 CODE 0
__size_of_INT_CallBack 0 0 ABS 0
_TMR1_Initialize 1C8D 0 CODE 0
_TMR2_Initialize 1BDB 0 CODE 0
tsttc@value 23 0 BANK0 1
_PWM6_Initialize 1ACE 0 CODE 0
_ADCC_Initialize 1BC5 0 CODE 0
__end_of_digitalWrite 11AA 0 CODE 0
_read_registers 629 0 CODE 0
__Hidloc 0 0 IDLOC 0
__Lidloc 0 0 IDLOC 0
__size_of_PWM6_LoadDutyValue 0 0 ABS 0
__size_of_serial_time 0 0 ABS 0
__Hstack 0 0 STACK 2
__Lstack 0 0 STACK 2
__size_of_tsttc 0 0 ABS 0
___llmod 1F06 0 CODE 0
__end_of___lldiv 120C 0 CODE 0
__size_of_PWM6_Initialize 0 0 ABS 0
___awmod 108D 0 CODE 0
___lwmod 1E42 0 CODE 0
__end_of_mssp1_setIRQ 19F8 0 CODE 0
__Hspace_0 800C 0 ABS 0
__Lspace_0 0 0 ABS 0
__end_of_INT_CallBack 1AF4 0 CODE 0
__end_of_TMR1_DefaultInterruptHandler 149B 0 CODE 0
digitalWrite@value 26 0 BANK0 1
__end_of_ADCC_Initialize 1BDB 0 CODE 0
__end_of_read_registers 7CB 0 CODE 0
__end_of_do_I2C_SEND_RESTART_READ 1A32 0 CODE 0
__Hspace_1 140 0 ABS 0
__Lspace_1 0 0 ABS 0
EUSART_Write@txData 20 0 BANK0 1
___fltol 1365 0 CODE 0
main@alarm_on 4C 0 BANK0 1
__Hspace_2 0 0 ABS 0
__Lspace_2 0 0 ABS 0
__end_of_i2c1_driver_sendNACK 1A0F 0 CODE 0
?___wmul 20 0 BANK0 1
__Hcinit 9C 0 CODE 0
__Lcinit 68 0 CODE 0
_counter 69 0 BANK0 1
_do_I2C_RESET 1A7B 0 CODE 0
__end_of_PMD_Initialize 1A72 0 CODE 0
_EUSART_is_rx_ready 1A04 0 CODE 0
___lldiv 11AA 0 CODE 0
___awdiv 120C 0 CODE 0
__Hspace_3 0 0 ABS 0
___lwdiv 1EC2 0 CODE 0
__CFG_LPBOREN$OFF 0 0 ABS 0
__size_of_setNumber 0 0 ABS 0
__Lspace_3 0 0 ABS 0
__end_of_i2c1_driver_restart 19E6 0 CODE 0
__size_of_main 0 0 ABS 0
setCallBack@idx 7B 0 COMMON 1
__end_of_INTERRUPT_InterruptManager 66 0 CODE 0
___xxtofl@sign 28 0 BANK0 1
i1_PWM6_LoadDutyValue 1BAF 0 CODE 0
save_max_min@lum_min 30 0 BANK0 1
save_max_min@lum_max 2E 0 BANK0 1
__CFG_BORV$LO 0 0 ABS 0
__size_of_i2c_ISR 0 0 ABS 0
_PIN_MANAGER_Initialize 1E7E 0 CODE 0
___fltol@exp1 2A 0 BANK0 1
__end_of_i2c1_driver_resetBus 7FF 0 CODE 0
read_time@aux_sec 3A 0 BANK0 1
__end_of_serial_time 629 0 CODE 0
__Hstringtext4 0 0 ABS 0
__Lstringtext4 0 0 ABS 0
?_setNumber 28 0 BANK0 1
__pstringtext4 1856 0 STRCODE 0
__end_of_TMR1_WriteTimer 1B63 0 CODE 0
__end_of_TMR1_StartTimer 1A01 0 CODE 0
__size_of_TMR1_ISR 0 0 ABS 0
__CFG_DEBUG$OFF 0 0 ABS 0
__size_of_rdBlkRegCompleteHandler 0 0 ABS 0
clear_ram0 1A56 0 CODE 0
__size_of_SYSTEM_Initialize 0 0 ABS 0
__end_of_TMR2_DefaultInterruptHandler 800 0 CODE 0
__size_of_EUSART_Read 0 0 ABS 0
save_to_ring_buffer@luminosity 2C 0 BANK0 1
__size_of___lwdiv 0 0 ABS 0
__HbssBANK0 0 0 ABS 0
__LbssBANK0 0 0 ABS 0
_SSP1CON1 190 0 ABS 0
__Hbank10 0 0 ABS 0
__pbssBANK0 5B 0 BANK0 1
__Lbank10 0 0 ABS 0
__Hbank20 0 0 BANK20 1
__Lbank20 0 0 BANK20 1
?_ADCC_GetSingleConversion 20 0 BANK0 1
_SSP1CON2 191 0 ABS 0
__Hbank30 0 0 BANK30 1
__Hbank11 0 0 ABS 0
__Lbank30 0 0 BANK30 1
__Lbank11 0 0 ABS 0
_i2c1_driver_stop 19E6 0 CODE 0
__size_of_do_I2C_SEND_RESTART_WRITE 0 0 ABS 0
__Hbank21 0 0 BANK21 1
__Lbank21 0 0 BANK21 1
__end_of_OSCILLATOR_Initialize 1AA8 0 CODE 0
__size_of_TMR2_SetInterruptHandler 0 0 ABS 0
__Hbank31 0 0 BANK31 1
__Hbank12 0 0 ABS 0
__Lbank31 0 0 BANK31 1
__Lbank12 0 0 ABS 0
__end_of_SYSTEM_Initialize 1C8D 0 CODE 0
__size_of_TMR1_StartTimer 0 0 ABS 0
__Hbank22 0 0 BANK22 1
__Lbank22 0 0 BANK22 1
__Hbank13 0 0 BANK13 1
_setCallBack 1D5D 0 CODE 0
__Lbank13 0 0 BANK13 1
__HbssBANK1 0 0 ABS 0
__LbssBANK1 0 0 ABS 0
__Hbank23 0 0 BANK23 1
__Lbank23 0 0 BANK23 1
___xxtofl@arg 2A 0 BANK0 1
__Hbank14 0 0 BANK14 1
__pbssBANK1 A0 0 BANK1 1
__Lbank14 0 0 BANK14 1
__Hbank24 0 0 BANK24 1
__Lbank24 0 0 BANK24 1
__ptext10 1276 0 CODE 0
__Hbank15 0 0 BANK15 1
__Lbank15 0 0 BANK15 1
__ptext20 801 0 CODE 0
__Hbank25 0 0 BANK25 1
__end_of_i2c1_driver_clearBusCollision 19FE 0 CODE 0
__Lbank25 0 0 BANK25 1
__ptext11 1CF1 0 CODE 0
__ptext30 1038 0 CODE 0
__Hbank16 0 0 BANK16 1
__Lbank16 0 0 BANK16 1
_i2c_restartWrite 19EF 0 CODE 0
__ptext21 120C 0 CODE 0
__ptext40 1AB1 0 CODE 0
__Hbank26 0 0 BANK26 1
__Lbank26 0 0 BANK26 1
__ptext12 1001 0 CODE 0
__ptext31 1D38 0 CODE 0
__ptext50 1A8D 0 CODE 0
__Hbank17 0 0 BANK17 1
__Lbank17 0 0 BANK17 1
main@min_luminosity 58 0 BANK0 1
__size_of_TMR1_DefaultInterruptHandler 0 0 ABS 0
__HbssBANK2 0 0 ABS 0
__ptext22 16F0 0 CODE 0
__ptext41 1C8D 0 CODE 0
__ptext60 1DD7 0 CODE 0
__LbssBANK2 0 0 ABS 0
__Hbank27 0 0 BANK27 1
__Lbank27 0 0 BANK27 1
__ptext13 1365 0 CODE 0
__ptext32 1B30 0 CODE 0
__ptext51 1BC5 0 CODE 0
__ptext70 1A2C 0 CODE 0
__Hbank18 0 0 BANK18 1
__pbssBANK2 120 0 BANK2 1
__Lbank18 0 0 BANK18 1
_ADCON0bits 93 0 ABS 0
_ADCON1bits 94 0 ABS 0
__ptext23 12E3 0 CODE 0
__ptext42 1AA8 0 CODE 0
__ptext61 1A50 0 CODE 0
__ptext80 19F2 0 CODE 0
__Hbank28 0 0 BANK28 1
__HidataBANK1 0 0 ABS 0
__size_of___awdiv 0 0 ABS 0
__Lbank28 0 0 BANK28 1
__LidataBANK1 0 0 ABS 0
_eusartRxCount 74 0 COMMON 1
_ADCON2bits 95 0 ABS 0
read_registers@j 2C 0 BANK0 1
digitalWrite@led 24 0 BANK0 1
_ADCON3bits 96 0 ABS 0
__ptext14 9C 0 CODE 0
__ptext33 1B20 0 CODE 0
__ptext52 1C0A 0 CODE 0
__ptext71 1A26 0 CODE 0
__ptext90 1D5D 0 CODE 0
__Hbank19 0 0 BANK19 1
__Lbank19 0 0 BANK19 1
__end_of_fsmStateTable 1899 0 STRCODE 0
__pidataBANK1 1A5C 0 CODE 0
_PWM6_LoadDutyValue 1C23 0 CODE 0
__size_of_save_to_eeprom_date 0 0 ABS 0
__ptext24 7CB 0 CODE 0
__ptext43 1ACE 0 CODE 0
__ptext62 1A4A 0 CODE 0
__ptext81 1C3C 0 CODE 0
__end_of_read_time 1365 0 CODE 0
__Hbank29 0 0 BANK29 1
__end_of_save_to_eeprom_date 7FE 0 CODE 0
__Lbank29 0 0 BANK29 1
__size_of_PMD_Initialize 0 0 ABS 0
__ptext15 629 0 CODE 0
__ptext34 154B 0 CODE 0
__ptext72 1A7B 0 CODE 0
__ptext91 1B40 0 CODE 0
main@max_luminosity 55 0 BANK0 1
__size_of_TMR2_Start 0 0 ABS 0
__ptext25 1FAC 0 CODE 0
__ptext44 1A6A 0 CODE 0
__ptext63 1A44 0 CODE 0
__ptext82 1B9C 0 CODE 0
__end_of_mssp1_clearIRQ 19FB 0 CODE 0
setCallBack@p 79 0 COMMON 1
__end_of_TMR2_StartTimer 1A1B 0 CODE 0
__ptext16 1A04 0 CODE 0
__ptext35 1A17 0 CODE 0
__ptext54 1A13 0 CODE 0
__ptext73 1E08 0 CODE 0
__ptext92 19E6 0 CODE 0
user_interface@tempTens 40 0 BANK0 1
__ptext26 1E42 0 CODE 0
__ptext45 1E7E 0 CODE 0
__ptext64 1A62 0 CODE 0
__ptext83 1B89 0 CODE 0
read_time@aux_hour 36 0 BANK0 1
__size_of_EUSART_Write 0 0 ABS 0
__size_of_i2c_setBuffer 0 0 ABS 0
_i2c1_driver_open 1B20 0 CODE 0
_WriteI2C 1276 0 CODE 0
___llmod@divisor 20 0 BANK0 1
__ptext17 1D84 0 CODE 0
__ptext36 1A01 0 CODE 0
__ptext55 19FB 0 CODE 0
__ptext74 19F5 0 CODE 0
__ptext93 19E3 0 CODE 0
_ledsSetLow 1D14 0 CODE 0
__end_of_rdBlkRegCompleteHandler 1C56 0 CODE 0
__end_of_EUSART_Receive_ISR 1CCE 0 CODE 0
___awmod@divisor 20 0 BANK0 1
__end_of___lwmod 1E7E 0 CODE 0
__ptext27 1EC2 0 CODE 0
__ptext46 1A9F 0 CODE 0
__ptext65 1A84 0 CODE 0
__ptext84 1B76 0 CODE 0
___lwmod@divisor 20 0 BANK0 1
__ptext18 80F 0 CODE 0
__ptext37 19FE 0 CODE 0
__ptext56 1DAC 0 CODE 0
__ptext75 1A72 0 CODE 0
__ptext94 1A07 0 CODE 0
_RC1STAbits 11D 0 ABS 0
__end_of_ReadI2C 1D14 0 CODE 0
___fltol@sign1 29 0 BANK0 1
_TX1STAbits 11E 0 ABS 0
__CFG_PWRTE$OFF 0 0 ABS 0
__ptext28 1CCE 0 CODE 0
__ptext47 1B02 0 CODE 0
__ptext66 1AC4 0 CODE 0
__ptext85 19EF 0 CODE 0
__HbssCOMMON 0 0 ABS 0
__LbssCOMMON 0 0 ABS 0
__ptext19 1AD9 0 CODE 0
__ptext38 1C71 0 CODE 0
__ptext57 19F8 0 CODE 0
__ptext76 1A1B 0 CODE 0
__end_of_do_I2C_SEND_ADR_WRITE 1A8D 0 CODE 0
__ptext95 1B10 0 CODE 0
__pbssCOMMON 70 0 COMMON 1
__ptext29 149B 0 CODE 0
__ptext48 1A96 0 CODE 0
__ptext67 1A3E 0 CODE 0
__ptext86 19EC 0 CODE 0
_returnStop 19E9 0 CODE 0
_save_to_ring_buffer 80F 0 CODE 0
_temp_alarm_time D7 0 BANK1 1
__ptext39 1BDB 0 CODE 0
__ptext58 1F58 0 CODE 0
__ptext77 1A0F 0 CODE 0
__ptext96 7FF 0 CODE 0
_T1GCONbits 20F 0 ABS 0
__ptext49 1C56 0 CODE 0
__ptext68 1A38 0 CODE 0
__ptext87 19E9 0 CODE 0
_timer1ReloadVal E8 0 BANK1 1
_INTCONbits B 0 ABS 0
__ptext59 10EB 0 CODE 0
__ptext78 1A0B 0 CODE 0
__ptext97 1BF2 0 CODE 0
__CFG_PPS1WAY$ON 0 0 ABS 0
_ADSTATbits 97 0 ABS 0
__ptext69 1A32 0 CODE 0
__ptext88 1B63 0 CODE 0
__Hend_init 68 0 CODE 0
__Lend_init 66 0 CODE 0
__ptext79 7FE 0 CODE 0
__ptext98 1B51 0 CODE 0
__end_of_do_I2C_SEND_STOP 1A44 0 CODE 0
__pswtext1 1899 0 CONST 0
__ptext89 1AF4 0 CODE 0
__size_of_EUSART_Receive_ISR 0 0 ABS 0
__end_of_rd1RegCompleteHandler 1B9C 0 CODE 0
__ptext99 13FA 0 CODE 0
user_interface@minTens 32 0 BANK0 1
___lldiv@divisor 20 0 BANK0 1
__size_of___lldiv 0 0 ABS 0
___awdiv@divisor 20 0 BANK0 1
_read_index D3 0 BANK1 1
___lwdiv@divisor 26 0 BANK0 1
_TMR2_Start 1A01 0 CODE 0
__pswtext2 18AF 0 CONST 0
_PMD_Initialize 1A6A 0 CODE 0
__end_of_tsttc A6C 0 CODE 0
i2c_setBuffer@buffer 7A 0 COMMON 1
__size_of_do_I2C_SEND_ADR_WRITE 0 0 ABS 0
user_interface@hourUnits 3A 0 BANK0 1
__end_of_save_max_min 1800 0 CODE 0
__size_of_TMR1_Initialize 0 0 ABS 0
__end_of___llmod 1F58 0 CODE 0
_OSCILLATOR_Initialize 1A9F 0 CODE 0
__size_of___wmul 0 0 ABS 0
__size_of_INTERRUPT_InterruptManager 0 0 ABS 0
__Hreset_vec 2 0 CODE 0
__Lreset_vec 0 0 CODE 0
__size_of_ADCC_Initialize 0 0 ABS 0
__size_of_PIN_MANAGER_Initialize 0 0 ABS 0
_BAUD1CON 11F 0 ABS 0
__end_of_rd2RegCompleteHandler 1BAF 0 CODE 0
__Hstringtext5 0 0 ABS 0
___xxtofl@exp 29 0 BANK0 1
__Lstringtext5 0 0 ABS 0
__pstringtext5 0 0 STRCODE 0
INT_SetInterruptHandler@InterruptHandler 20 0 BANK0 1
__size_of_TMR2_ISR 0 0 ABS 0
__size_of_do_I2C_SEND_STOP 0 0 ABS 0
setNumber@atual 2A 0 BANK0 1
_T2CLKCON 290 0 ABS 0
ADCC_GetSingleConversion@channel 23 0 BANK0 1
_do_I2C_RX 1F58 0 CODE 0
__end_of_do_I2C_SEND_ADR_READ 1ACE 0 CODE 0
__end_of_WriteI2C 12E3 0 CODE 0
__end_of_INT_ISR 1A26 0 CODE 0
__end_of_do_I2C_DO_NACK_STOP 1A50 0 CODE 0
intlevel0 0 0 ENTRY 0
_do_I2C_TX 10EB 0 CODE 0
__CFG_WDTE$OFF 0 0 ABS 0
_SSP1STAT 18F 0 ABS 0
intlevel1 0 0 ENTRY 0
___xxtofl@val 20 0 BANK0 1
__size_of_INT_ISR 0 0 ABS 0
intlevel2 0 0 ENTRY 0
__end_of_do_I2C_SEND_RESTART 1A3E 0 CODE 0
_DATAEE_WriteByte 1D38 0 CODE 0
intlevel3 0 0 ENTRY 0
_i2c1_driver_sendACK 1A07 0 CODE 0
__size_of_TMR2_StartTimer 0 0 ABS 0
intlevel4 0 0 ENTRY 0
_SSP1CON1bits 190 0 ABS 0
intlevel5 0 0 ENTRY 0
_SSP1CON2bits 191 0 ABS 0
serial_time@alal_aux 3E 0 BANK0 1
__size_of_WriteI2C 0 0 ABS 0
__size_of_i2c_setDataCompleteCallback 0 0 ABS 0
_TMR1_ISR 1BF2 0 CODE 0
_TMR2_ISR 1B10 0 CODE 0
_i2c1_driver_sendNACK 1A0B 0 CODE 0
__end_of_i2c1_driver_startRX 19F5 0 CODE 0
i2c_setDataCompleteCallback@cb 20 0 BANK0 1
__size_of_TMR2_DefaultInterruptHandler 0 0 ABS 0
_eusartRxHead 6D 0 BANK0 1
__size_of___lwmod 0 0 ABS 0
__size_of___fltol 0 0 ABS 0
__HcstackCOMMON 0 0 ABS 0
__LcstackCOMMON 0 0 ABS 0
_CCPTMRS1bits 21F 0 ABS 0
_index_eeprom 6E 0 BANK0 1
__pcstackCOMMON 77 0 COMMON 1
__CFG_ZCD$OFF 0 0 ABS 0
__end_of___wmul 1CF1 0 CODE 0
__CFG_CPD$OFF 0 0 ABS 0
start_initialization 68 0 CODE 0
__end_of_do_I2C_RX 1FAC 0 CODE 0
__end_of_do_I2C_TX 114A 0 CODE 0
___lldiv@quotient 29 0 BANK0 1
__size_of_i2c1_driver_startRX 0 0 ABS 0
___awdiv@quotient 27 0 BANK0 1
_do_I2C_DO_ADDRESS_NACK 1DD7 0 CODE 0
___lwdiv@quotient 2B 0 BANK0 1
__size_of_mssp1_setIRQ 0 0 ABS 0
_i2c_status A0 0 BANK1 1
TMR1_SetInterruptHandler@InterruptHandler 20 0 BANK0 1
TMR2_SetInterruptHandler@InterruptHandler 20 0 BANK0 1
_EUSART_Receive_ISR 1CAC 0 CODE 0
__end_of_EUSART_is_rx_ready 1A07 0 CODE 0
_i2c_setDataCompleteCallback 1AF4 0 CODE 0
__size_of_ADCC_GetSingleConversion 0 0 ABS 0
_i2c1_driver_isNACK 1A72 0 CODE 0
__end_of_do_I2C_IDLE 1A2C 0 CODE 0
_do_I2C_SEND_STOP 1A3E 0 CODE 0
__end_of_do_I2C_RCEN 1A6A 0 CODE 0
__end_of_DATAEE_ReadByte 1B40 0 CODE 0
__end_of_TMR1_ISR 1C0A 0 CODE 0
__end_of___xxtofl 1600 0 CODE 0
__Hmaintext 0 0 ABS 0
__Lmaintext 0 0 ABS 0
__size_of_i2c1_driver_sendACK 0 0 ABS 0
user_interface@minUnits 34 0 BANK0 1
__pmaintext A6C 0 CODE 0
__CFG_MCLRE$ON 0 0 ABS 0
__size_of_OSCILLATOR_Initialize 0 0 ABS 0
main@last_temperatura 51 0 BANK0 1
__end_of_do_I2C_DO_ADDRESS_NACK 1E08 0 CODE 0
EUSART_SetRxInterruptHandler@interruptHandler 20 0 BANK0 1
__CFG_SCANE$available 0 0 ABS 0
_read_config 149B 0 CODE 0
__size_of___awmod 0 0 ABS 0
_save_config 1038 0 CODE 0
__size_of_do_I2C_SEND_ADR_READ 0 0 ABS 0
__end_of_save_config 108D 0 CODE 0
main@last_measurement_time 4F 0 BANK0 1
__end_ofi1_PWM6_LoadDutyValue 1BC5 0 CODE 0
__size_of_i2c1_driver_clearBusCollision 0 0 ABS 0
__end_of_do_I2C_RESET 1A84 0 CODE 0
__initialization 68 0 CODE 0
_do_I2C_SEND_RESTART_WRITE 1A32 0 CODE 0
DATAEE_WriteByte@GIEBitValue 29 0 BANK0 1
_save_to_eeprom_date 7CB 0 CODE 0
__size_of_do_I2C_DO_NACK_STOP 0 0 ABS 0
_eusartRxTail 6C 0 BANK0 1
__size_of_returnStop 0 0 ABS 0
__size_of_TMR2_Initialize 0 0 ABS 0
___llmod@dividend 24 0 BANK0 1
__size_of_EXT_INT_Initialize 0 0 ABS 0
___awmod@dividend 22 0 BANK0 1
___lwmod@dividend 22 0 BANK0 1
DATAEE_WriteByte@bAdd 26 0 BANK0 1
___llmod@counter 29 0 BANK0 1
___awmod@counter 25 0 BANK0 1
_INT_InterruptHandler E0 0 BANK1 1
___wmul@product 24 0 BANK0 1
__size_of_read_time 0 0 ABS 0
___lwmod@counter 25 0 BANK0 1
__CFG_CP$OFF 0 0 ABS 0
_serial_time 9C 0 CODE 0
__CFG_FCMEN$ON 0 0 ABS 0
__size_of_do_I2C_SEND_RESTART 0 0 ABS 0
_fsmStateTable 1879 0 STRCODE 0
_current_time 1FAC 0 CODE 0
__end_of_do_I2C_DO_ACK 1A4A 0 CODE 0
__size_of___llmod 0 0 ABS 0
__size_of_returnReset 0 0 ABS 0
__size_of_do_I2C_TX_EMPTY 0 0 ABS 0
___lldiv@dividend 24 0 BANK0 1
___awdiv@dividend 22 0 BANK0 1
%segments
reset_vec 0 3 CODE 0 0
intentry 8 FFF CODE 8 0
config 1000E 10017 CONFIG 1000E 0
bssCOMMON 70 7D COMMON 70 1
bssBANK1 A0 EF BANK1 A0 1
cstackBANK0 20 6F BANK0 20 1
bssBANK2 120 13F BANK2 120 1
text1 1978 1FFF CODE 1978 0
maintext 14D8 1977 CODE 14D8 0
text9 11C6 14D7 CODE 11C6 0
text22 2DE0 2FFF CODE 2DE0 0
text2 2C00 2DDF CODE 2C00 0
text18 101E 11C5 CODE 101E 0
text34 2A96 2BFF CODE 2A96 0
text29 2936 2A95 CODE 2936 0
text99 27F4 2935 CODE 27F4 0
text13 26CA 27F3 CODE 26CA 0
text23 25C6 26C9 CODE 25C6 0
text10 24EC 25C5 CODE 24EC 0
text21 2418 24EB CODE 2418 0
text7 2354 2417 CODE 2354 0
text4 2294 2353 CODE 2294 0
text59 21D6 2293 CODE 21D6 0
text8 211A 21D5 CODE 211A 0
text30 2070 2119 CODE 2070 0
text25 3F58 3FFF CODE 3F58 0
text58 3EB0 3F57 CODE 3EB0 0
text6 3E0C 3EAF CODE 3E0C 0
text27 3D84 3E0B CODE 3D84 0
text45 3CFC 3D83 CODE 3CFC 0
text26 3C84 3CFB CODE 3C84 0
text73 3C10 3C83 CODE 3C10 0
text12 2002 206F CODE 2002 0
text60 3BAE 3C0F CODE 3BAE 0
stringtext2 3000 3131 STRCODE 3000 0
text56 3B58 3BAD CODE 3B58 0
text17 3B08 3B57 CODE 3B08 0
text90 3ABA 3B07 CODE 3ABA 0
text31 3A70 3AB9 CODE 3A70 0
text3 3A28 3A6F CODE 3A28 0
text11 39E2 3A27 CODE 39E2 0
text28 399C 39E1 CODE 399C 0
text104 3958 399B CODE 3958 0
text41 391A 3957 CODE 391A 0
text38 38E2 3919 CODE 38E2 0
text49 38AC 38E1 CODE 38AC 0
text81 3878 38AB CODE 3878 0
text5 3846 3877 CODE 3846 0
text52 3814 3845 CODE 3814 0
text97 37E4 3813 CODE 37E4 0
text39 37B6 37E3 CODE 37B6 0
swtext1 3132 317D CONST 3132 0
text51 378A 37B5 CODE 378A 0
text100 375E 3789 CODE 375E 0
text82 3738 375D CODE 3738 0
text83 3712 3737 CODE 3712 0
text84 36EC 3711 CODE 36EC 0
text88 36C6 36EB CODE 36C6 0
text98 36A2 36C5 CODE 36A2 0
text91 3680 36A1 CODE 3680 0
text32 3660 367F CODE 3660 0
text33 3640 365F CODE 3640 0
text95 3620 363F CODE 3620 0
text20 1002 101D CODE 1002 0
text47 3604 361F CODE 3604 0
text89 35E8 3603 CODE 35E8 0
text102 35CC 35E7 CODE 35CC 0
text19 35B2 35CB CODE 35B2 0
text43 359C 35B1 CODE 359C 0
text66 3588 359B CODE 3588 0
text103 3574 3587 CODE 3574 0
text40 3562 3573 CODE 3562 0
text42 3550 3561 CODE 3550 0
text46 353E 354F CODE 353E 0
text48 352C 353D CODE 352C 0
text50 351A 352B CODE 351A 0
text65 3508 3519 CODE 3508 0
text72 34F6 3507 CODE 34F6 0
text75 34E4 34F5 CODE 34E4 0
text44 34D4 34E3 CODE 34D4 0
text64 34C4 34D3 CODE 34C4 0
idataBANK1 34B8 34C3 CODE 34B8 0
clrtext 34AC 34B7 CODE 34AC 0
text61 34A0 34AB CODE 34A0 0
text62 3494 349F CODE 3494 0
text63 3488 3493 CODE 3488 0
text67 347C 3487 CODE 347C 0
text68 3470 347B CODE 3470 0
text69 3464 346F CODE 3464 0
text70 3458 3463 CODE 3458 0
text71 344C 3457 CODE 344C 0
text101 3440 344B CODE 3440 0
text76 3436 343F CODE 3436 0
text35 342E 3435 CODE 342E 0
text54 3426 342D CODE 3426 0
text77 341E 3425 CODE 341E 0
text78 3416 341D CODE 3416 0
text94 340E 3415 CODE 340E 0
text16 3408 340D CODE 3408 0
text36 3402 3407 CODE 3402 0
text37 33FC 3401 CODE 33FC 0
text55 33F6 33FB CODE 33F6 0
text57 33F0 33F5 CODE 33F0 0
text74 33EA 33EF CODE 33EA 0
text80 33E4 33E9 CODE 33E4 0
text85 33DE 33E3 CODE 33DE 0
text86 33D8 33DD CODE 33D8 0
text87 33D2 33D7 CODE 33D2 0
text92 33CC 33D1 CODE 33CC 0
text93 33C6 33CB CODE 33C6 0
%locals
dist/default/debug/Projeto1.X.debug.o
/tmp/xcXkaDWrm
17256 68 0 CODE 0
17259 68 0 CODE 0
17393 68 0 CODE 0
17394 69 0 CODE 0
17395 6A 0 CODE 0
17396 6B 0 CODE 0
17397 6C 0 CODE 0
17398 6D 0 CODE 0
17399 6E 0 CODE 0
17400 6F 0 CODE 0
17401 70 0 CODE 0
17402 71 0 CODE 0
17403 72 0 CODE 0
17404 73 0 CODE 0
17405 74 0 CODE 0
17406 75 0 CODE 0
17407 76 0 CODE 0
17408 77 0 CODE 0
17409 78 0 CODE 0
17426 79 0 CODE 0
17427 7A 0 CODE 0
17428 7B 0 CODE 0
17429 7C 0 CODE 0
17430 7D 0 CODE 0
17431 7E 0 CODE 0
17432 7F 0 CODE 0
17436 80 0 CODE 0
17437 81 0 CODE 0
17438 82 0 CODE 0
17439 83 0 CODE 0
17440 84 0 CODE 0
17441 85 0 CODE 0
17445 88 0 CODE 0
17446 89 0 CODE 0
17447 8A 0 CODE 0
17448 8B 0 CODE 0
17449 8C 0 CODE 0
17450 8D 0 CODE 0
17454 90 0 CODE 0
17455 91 0 CODE 0
17456 92 0 CODE 0
17457 93 0 CODE 0
17458 94 0 CODE 0
17459 95 0 CODE 0
17465 98 0 CODE 0
17467 98 0 CODE 0
17468 99 0 CODE 0
17469 9A 0 CODE 0
17415 1A56 0 CODE 0
17416 1A56 0 CODE 0
17417 1A57 0 CODE 0
17418 1A57 0 CODE 0
17419 1A58 0 CODE 0
17420 1A59 0 CODE 0
17421 1A5A 0 CODE 0
17422 1A5B 0 CODE 0
main.c
210 A6C 0 CODE 0
213 A6C 0 CODE 0
215 A71 0 CODE 0
216 A74 0 CODE 0
217 A77 0 CODE 0
219 A7A 0 CODE 0
220 A7B 0 CODE 0
222 A7C 0 CODE 0
223 A7F 0 CODE 0
239 A82 0 CODE 0
240 A85 0 CODE 0
241 A87 0 CODE 0
242 A88 0 CODE 0
244 A8C 0 CODE 0
245 A8D 0 CODE 0
246 A8E 0 CODE 0
247 A90 0 CODE 0
248 A91 0 CODE 0
249 A93 0 CODE 0
250 A95 0 CODE 0
255 A99 0 CODE 0
256 A9A 0 CODE 0
257 AA1 0 CODE 0
258 AA2 0 CODE 0
259 AB4 0 CODE 0
261 AC4 0 CODE 0
264 AD9 0 CODE 0
278 AD9 0 CODE 0
280 ADC 0 CODE 0
282 AF0 0 CODE 0
283 AF4 0 CODE 0
284 AF8 0 CODE 0
285 AF9 0 CODE 0
286 B00 0 CODE 0
287 B01 0 CODE 0
288 B06 0 CODE 0
289 B19 0 CODE 0
292 B19 0 CODE 0
294 B27 0 CODE 0
295 B2C 0 CODE 0
297 B3D 0 CODE 0
298 B3D 0 CODE 0
300 B4C 0 CODE 0
301 B51 0 CODE 0
303 B62 0 CODE 0
304 B62 0 CODE 0
306 B69 0 CODE 0
307 B6D 0 CODE 0
309 B81 0 CODE 0
310 B81 0 CODE 0
312 B88 0 CODE 0
313 B8C 0 CODE 0
315 BA0 0 CODE 0
318 BA0 0 CODE 0
320 BB2 0 CODE 0
321 BC0 0 CODE 0
322 BC5 0 CODE 0
323 BCA 0 CODE 0
325 BCA 0 CODE 0
327 BE5 0 CODE 0
328 BE8 0 CODE 0
329 BEE 0 CODE 0
331 BEE 0 CODE 0
334 C07 0 CODE 0
336 C27 0 CODE 0
338 C2D 0 CODE 0
339 C34 0 CODE 0
340 C37 0 CODE 0
342 C37 0 CODE 0
344 C5C 0 CODE 0
345 C63 0 CODE 0
346 C67 0 CODE 0
347 C68 0 CODE 0
349 C68 0 CODE 0
350 C71 0 CODE 0
351 C72 0 CODE 0
354 C72 0 CODE 0
357 C77 0 CODE 0
358 C80 0 CODE 0
359 C81 0 CODE 0
361 C87 0 CODE 0
362 C8A 0 CODE 0
363 C90 0 CODE 0
364 C92 0 CODE 0
365 C93 0 CODE 0
367 C93 0 CODE 0
368 C97 0 CODE 0
369 C98 0 CODE 0
371 C98 0 CODE 0
373 C9E 0 CODE 0
375 CA0 0 CODE 0
377 CA1 0 CODE 0
378 CA3 0 CODE 0
379 CA3 0 CODE 0
380 CA6 0 CODE 0
382 CAC 0 CODE 0
383 CAE 0 CODE 0
384 CAF 0 CODE 0
385 CB3 0 CODE 0
386 CB5 0 CODE 0
387 CB8 0 CODE 0
389 CB9 0 CODE 0
390 CBA 0 CODE 0
393 CBC 0 CODE 0
413 CBC 0 CODE 0
415 CC1 0 CODE 0
416 CC9 0 CODE 0
419 CC9 0 CODE 0
421 CCE 0 CODE 0
422 CCF 0 CODE 0
424 CD8 0 CODE 0
426 CD9 0 CODE 0
427 CD9 0 CODE 0
428 CE0 0 CODE 0
429 CE5 0 CODE 0
430 CEA 0 CODE 0
431 CEB 0 CODE 0
432 CEB 0 CODE 0
433 CF1 0 CODE 0
434 CF6 0 CODE 0
435 CFB 0 CODE 0
436 CFC 0 CODE 0
437 CFC 0 CODE 0
438 D02 0 CODE 0
439 D07 0 CODE 0
440 D0C 0 CODE 0
441 D0D 0 CODE 0
442 D0D 0 CODE 0
443 D13 0 CODE 0
444 D18 0 CODE 0
445 D1B 0 CODE 0
446 D1D 0 CODE 0
447 D1E 0 CODE 0
448 D1E 0 CODE 0
449 D23 0 CODE 0
450 D24 0 CODE 0
451 D24 0 CODE 0
452 D28 0 CODE 0
453 D29 0 CODE 0
454 D29 0 CODE 0
455 D2D 0 CODE 0
456 D2E 0 CODE 0
457 D2E 0 CODE 0
458 D32 0 CODE 0
459 D38 0 CODE 0
460 D3D 0 CODE 0
461 D3E 0 CODE 0
462 D3E 0 CODE 0
463 D43 0 CODE 0
464 D49 0 CODE 0
465 D4E 0 CODE 0
466 D4F 0 CODE 0
467 D4F 0 CODE 0
468 D54 0 CODE 0
469 D55 0 CODE 0
470 D55 0 CODE 0
471 D59 0 CODE 0
472 D5F 0 CODE 0
473 D64 0 CODE 0
474 D65 0 CODE 0
475 D79 0 CODE 0
476 D7A 0 CODE 0
478 D7E 0 CODE 0
480 D87 0 CODE 0
482 D88 0 CODE 0
483 D88 0 CODE 0
484 D8B 0 CODE 0
485 D90 0 CODE 0
486 D91 0 CODE 0
487 D91 0 CODE 0
488 D94 0 CODE 0
489 D99 0 CODE 0
490 D9A 0 CODE 0
491 D9A 0 CODE 0
492 D9D 0 CODE 0
493 DA2 0 CODE 0
494 DA3 0 CODE 0
495 DA3 0 CODE 0
496 DA6 0 CODE 0
497 DAB 0 CODE 0
498 DAC 0 CODE 0
499 DC2 0 CODE 0
501 DC3 0 CODE 0
503 DC4 0 CODE 0
504 DC4 0 CODE 0
505 DCA 0 CODE 0
506 DE3 0 CODE 0
507 DF3 0 CODE 0
508 DF7 0 CODE 0
509 DF8 0 CODE 0
510 DF8 0 CODE 0
511 DFE 0 CODE 0
512 E17 0 CODE 0
513 E1E 0 CODE 0
514 E2F 0 CODE 0
515 E2F 0 CODE 0
516 E40 0 CODE 0
517 E44 0 CODE 0
518 E45 0 CODE 0
519 E45 0 CODE 0
520 E4B 0 CODE 0
521 E64 0 CODE 0
522 E74 0 CODE 0
523 E78 0 CODE 0
524 E79 0 CODE 0
525 E79 0 CODE 0
526 E7F 0 CODE 0
527 E98 0 CODE 0
528 EA8 0 CODE 0
529 EBA 0 CODE 0
530 ECC 0 CODE 0
531 EF4 0 CODE 0
532 EF8 0 CODE 0
533 EFE 0 CODE 0
534 F03 0 CODE 0
535 F04 0 CODE 0
536 F04 0 CODE 0
537 F0B 0 CODE 0
538 F1C 0 CODE 0
539 F20 0 CODE 0
540 F26 0 CODE 0
541 F2B 0 CODE 0
542 F2C 0 CODE 0
543 F2C 0 CODE 0
544 F33 0 CODE 0
545 F44 0 CODE 0
546 F54 0 CODE 0
547 F58 0 CODE 0
548 F59 0 CODE 0
549 F59 0 CODE 0
550 F5F 0 CODE 0
551 F70 0 CODE 0
552 F77 0 CODE 0
553 F87 0 CODE 0
554 F87 0 CODE 0
555 F97 0 CODE 0
556 FA9 0 CODE 0
557 FAD 0 CODE 0
558 FB3 0 CODE 0
559 FB8 0 CODE 0
560 FB9 0 CODE 0
561 FB9 0 CODE 0
562 FC0 0 CODE 0
563 FD8 0 CODE 0
564 FDF 0 CODE 0
565 FE4 0 CODE 0
566 FE8 0 CODE 0
567 FE9 0 CODE 0
568 FFE 0 CODE 0
569 FFF 0 CODE 0
474 1899 0 CONST 0
567 18AF 0 CONST 0
621 1600 0 CODE 0
623 1600 0 CODE 0
624 1607 0 CODE 0
625 1622 0 CODE 0
626 163A 0 CODE 0
627 164F 0 CODE 0
628 165E 0 CODE 0
631 165E 0 CODE 0
633 1663 0 CODE 0
635 166C 0 CODE 0
636 1671 0 CODE 0
637 1671 0 CODE 0
639 167F 0 CODE 0
640 1683 0 CODE 0
641 1683 0 CODE 0
643 1688 0 CODE 0
645 1691 0 CODE 0
646 1698 0 CODE 0
647 1698 0 CODE 0
648 16B2 0 CODE 0
649 16CA 0 CODE 0
650 16DF 0 CODE 0
651 16EE 0 CODE 0
652 16EF 0 CODE 0
571 1D14 0 CODE 0
573 1D14 0 CODE 0
575 1D1B 0 CODE 0
576 1D22 0 CODE 0
577 1D26 0 CODE 0
578 1D29 0 CODE 0
579 1D2B 0 CODE 0
580 1D2C 0 CODE 0
582 1D2C 0 CODE 0
583 1D2E 0 CODE 0
584 1D30 0 CODE 0
585 1D37 0 CODE 0
586 1D37 0 CODE 0
589 114A 0 CODE 0
591 114A 0 CODE 0
593 1152 0 CODE 0
594 1158 0 CODE 0
595 115B 0 CODE 0
596 115B 0 CODE 0
597 115E 0 CODE 0
598 115F 0 CODE 0
600 1166 0 CODE 0
601 116C 0 CODE 0
602 1174 0 CODE 0
603 1174 0 CODE 0
604 117C 0 CODE 0
605 117D 0 CODE 0
607 1185 0 CODE 0
608 118B 0 CODE 0
609 118E 0 CODE 0
610 118E 0 CODE 0
611 1191 0 CODE 0
612 1192 0 CODE 0
614 1199 0 CODE 0
615 119F 0 CODE 0
616 11A2 0 CODE 0
617 11A2 0 CODE 0
618 11A6 0 CODE 0
619 11A9 0 CODE 0
mcc_generated_files/pwm6.c
74 1C23 0 CODE 0
77 1C23 0 CODE 0
80 1C2F 0 CODE 0
81 1C3B 0 CODE 0
/opt/microchip/xc8/v2.00/pic/sources/c99/common/llmod.c
5 1F06 0 CODE 0
12 1F06 0 CODE 0
13 1F0F 0 CODE 0
14 1F11 0 CODE 0
15 1F12 0 CODE 0
16 1F19 0 CODE 0
17 1F1E 0 CODE 0
14 1F1E 0 CODE 0
18 1F24 0 CODE 0
19 1F24 0 CODE 0
20 1F36 0 CODE 0
21 1F3F 0 CODE 0
22 1F46 0 CODE 0
23 1F4E 0 CODE 0
24 1F4E 0 CODE 0
25 1F57 0 CODE 0
/opt/microchip/xc8/v2.00/pic/sources/c99/common/__lldiv.c
5 11AA 0 CODE 0
13 11AA 0 CODE 0
14 11B3 0 CODE 0
15 11BB 0 CODE 0
16 11BD 0 CODE 0
17 11BE 0 CODE 0
18 11C5 0 CODE 0
19 11CA 0 CODE 0
16 11CA 0 CODE 0
20 11D0 0 CODE 0
21 11D0 0 CODE 0
22 11D7 0 CODE 0
23 11E9 0 CODE 0
24 11F1 0 CODE 0
25 11F3 0 CODE 0
26 11F3 0 CODE 0
27 11FA 0 CODE 0
28 1202 0 CODE 0
29 1202 0 CODE 0
30 120B 0 CODE 0
/opt/microchip/xc8/v2.00/pic/sources/c99/common/awmod.c
5 108D 0 CODE 0
12 108D 0 CODE 0
13 108F 0 CODE 0
14 1093 0 CODE 0
15 1098 0 CODE 0
16 109B 0 CODE 0
17 109B 0 CODE 0
18 109F 0 CODE 0
19 10A5 0 CODE 0
20 10AB 0 CODE 0
21 10AD 0 CODE 0
22 10AE 0 CODE 0
23 10B3 0 CODE 0
24 10B8 0 CODE 0
21 10B8 0 CODE 0
25 10BE 0 CODE 0
26 10BE 0 CODE 0
27 10C8 0 CODE 0
28 10CD 0 CODE 0
29 10D2 0 CODE 0
30 10DA 0 CODE 0
31 10DA 0 CODE 0
32 10DF 0 CODE 0
33 10E5 0 CODE 0
34 10EA 0 CODE 0
main.c
104 8E3 0 CODE 0
107 8E3 0 CODE 0
109 8E3 0 CODE 0
110 8F4 0 CODE 0
111 8FC 0 CODE 0
113 90E 0 CODE 0
114 912 0 CODE 0
115 924 0 CODE 0
116 928 0 CODE 0
117 939 0 CODE 0
118 941 0 CODE 0
119 953 0 CODE 0
120 957 0 CODE 0
121 969 0 CODE 0
122 970 0 CODE 0
123 981 0 CODE 0
124 98A 0 CODE 0
125 99B 0 CODE 0
126 9A2 0 CODE 0
128 9A8 0 CODE 0
129 9B9 0 CODE 0
130 9C1 0 CODE 0
131 9D3 0 CODE 0
132 9D7 0 CODE 0
133 9E9 0 CODE 0
134 9ED 0 CODE 0
135 9FE 0 CODE 0
136 A06 0 CODE 0
137 A18 0 CODE 0
138 A1C 0 CODE 0
139 A2E 0 CODE 0
140 A35 0 CODE 0
141 A46 0 CODE 0
142 A4F 0 CODE 0
143 A60 0 CODE 0
145 A68 0 CODE 0
146 A6B 0 CODE 0
i2c.c
47 1276 0 CODE 0
49 1278 0 CODE 0
50 127B 0 CODE 0
51 1280 0 CODE 0
52 1282 0 CODE 0
54 1282 0 CODE 0
56 1297 0 CODE 0
57 1299 0 CODE 0
59 129F 0 CODE 0
61 12A6 0 CODE 0
62 12A7 0 CODE 0
63 12A8 0 CODE 0
65 12A8 0 CODE 0
66 12A9 0 CODE 0
67 12A9 0 CODE 0
68 12AA 0 CODE 0
70 12C1 0 CODE 0
71 12C8 0 CODE 0
72 12D9 0 CODE 0
73 12DC 0 CODE 0
74 12DE 0 CODE 0
75 12E0 0 CODE 0
77 12E2 0 CODE 0
78 12E2 0 CODE 0
32 1CF1 0 CODE 0
34 1CF1 0 CODE 0
35 1D07 0 CODE 0
36 1D0A 0 CODE 0
37 1D11 0 CODE 0
38 1D13 0 CODE 0
main.c
664 1001 0 CODE 0
666 1001 0 CODE 0
667 101B 0 CODE 0
668 101E 0 CODE 0
669 101E 0 CODE 0
671 1021 0 CODE 0
672 1031 0 CODE 0
673 1034 0 CODE 0
674 1034 0 CODE 0
675 1037 0 CODE 0
/opt/microchip/xc8/v2.00/pic/sources/c99/common/fltol.c
43 1365 0 CODE 0
47 1365 0 CODE 0
48 1379 0 CODE 0
49 1383 0 CODE 0
50 1396 0 CODE 0
51 1397 0 CODE 0
52 139F 0 CODE 0
53 13A1 0 CODE 0
54 13A5 0 CODE 0
55 13AC 0 CODE 0
56 13B7 0 CODE 0
57 13B7 0 CODE 0
59 13C7 0 CODE 0
60 13C8 0 CODE 0
61 13CE 0 CODE 0
62 13D8 0 CODE 0
63 13D9 0 CODE 0
64 13E0 0 CODE 0
65 13E2 0 CODE 0
62 13E2 0 CODE 0
66 13E9 0 CODE 0
67 13E9 0 CODE 0
68 13EE 0 CODE 0
70 13F9 0 CODE 0
main.c
808 9C 0 CODE 0
813 9C 0 CODE 0
816 A4 0 CODE 0
818 AB 0 CODE 0
820 B1 0 CODE 0
821 B8 0 CODE 0
823 B9 0 CODE 0
824 B9 0 CODE 0
825 C0 0 CODE 0
827 C6 0 CODE 0
828 CA 0 CODE 0
829 CE 0 CODE 0
830 D3 0 CODE 0
831 D8 0 CODE 0
832 DD 0 CODE 0
833 E2 0 CODE 0
834 E2 0 CODE 0
835 E3 0 CODE 0
836 E3 0 CODE 0
837 E5 0 CODE 0
838 EF 0 CODE 0
839 F9 0 CODE 0
840 100 0 CODE 0
841 107 0 CODE 0
843 10D 0 CODE 0
846 139 0 CODE 0
847 13D 0 CODE 0
848 141 0 CODE 0
849 145 0 CODE 0
850 149 0 CODE 0
851 14A 0 CODE 0
853 14A 0 CODE 0
854 176 0 CODE 0
855 179 0 CODE 0
856 17D 0 CODE 0
857 181 0 CODE 0
858 185 0 CODE 0
859 18A 0 CODE 0
860 18F 0 CODE 0
861 194 0 CODE 0
862 199 0 CODE 0
863 19E 0 CODE 0
864 19F 0 CODE 0
866 19F 0 CODE 0
867 1A0 0 CODE 0
868 1A0 0 CODE 0
869 1A7 0 CODE 0
871 1AD 0 CODE 0
872 1B1 0 CODE 0
873 1B5 0 CODE 0
874 1BA 0 CODE 0
875 1BF 0 CODE 0
876 1C4 0 CODE 0
877 1C4 0 CODE 0
878 1C5 0 CODE 0
879 1C5 0 CODE 0
880 1CC 0 CODE 0
882 1D2 0 CODE 0
883 1D6 0 CODE 0
884 1DA 0 CODE 0
885 1DF 0 CODE 0
886 1E4 0 CODE 0
887 1E9 0 CODE 0
888 1E9 0 CODE 0
889 1EA 0 CODE 0
890 1EA 0 CODE 0
891 1F1 0 CODE 0
892 1F8 0 CODE 0
894 1FE 0 CODE 0
896 204 0 CODE 0
897 20E 0 CODE 0
898 211 0 CODE 0
899 215 0 CODE 0
900 219 0 CODE 0
901 21D 0 CODE 0
902 221 0 CODE 0
903 222 0 CODE 0
905 222 0 CODE 0
906 226 0 CODE 0
907 22A 0 CODE 0
908 22E 0 CODE 0
909 233 0 CODE 0
910 234 0 CODE 0
912 234 0 CODE 0
913 235 0 CODE 0
914 235 0 CODE 0
915 23C 0 CODE 0
916 243 0 CODE 0
918 249 0 CODE 0
920 24F 0 CODE 0
921 259 0 CODE 0
922 25C 0 CODE 0
923 260 0 CODE 0
924 264 0 CODE 0
925 268 0 CODE 0
926 26C 0 CODE 0
927 26D 0 CODE 0
929 26D 0 CODE 0
930 271 0 CODE 0
931 275 0 CODE 0
932 279 0 CODE 0
933 27E 0 CODE 0
934 27F 0 CODE 0
935 27F 0 CODE 0
936 280 0 CODE 0
937 280 0 CODE 0
938 287 0 CODE 0
940 28D 0 CODE 0
941 291 0 CODE 0
942 295 0 CODE 0
943 299 0 CODE 0
944 29E 0 CODE 0
945 2A2 0 CODE 0
946 2A7 0 CODE 0
947 2A7 0 CODE 0
948 2A9 0 CODE 0
949 2AA 0 CODE 0
950 2AA 0 CODE 0
951 2B1 0 CODE 0
952 2BB 0 CODE 0
953 2C2 0 CODE 0
955 2C8 0 CODE 0
958 2E0 0 CODE 0
959 2E4 0 CODE 0
960 2E8 0 CODE 0
961 2EC 0 CODE 0
962 2F0 0 CODE 0
963 2F1 0 CODE 0
965 2F1 0 CODE 0
966 2F9 0 CODE 0
967 300 0 CODE 0
968 303 0 CODE 0
969 307 0 CODE 0
970 30B 0 CODE 0
971 30F 0 CODE 0
972 314 0 CODE 0
973 315 0 CODE 0
974 315 0 CODE 0
975 316 0 CODE 0
976 316 0 CODE 0
977 31D 0 CODE 0
978 324 0 CODE 0
980 32B 0 CODE 0
982 32C 0 CODE 0
983 330 0 CODE 0
984 334 0 CODE 0
985 338 0 CODE 0
986 33C 0 CODE 0
987 33D 0 CODE 0
989 33D 0 CODE 0
990 343 0 CODE 0
991 348 0 CODE 0
992 348 0 CODE 0
993 34B 0 CODE 0
994 34E 0 CODE 0
995 352 0 CODE 0
996 356 0 CODE 0
997 35A 0 CODE 0
998 35F 0 CODE 0
999 360 0 CODE 0
1000 360 0 CODE 0
1001 361 0 CODE 0
1002 361 0 CODE 0
1003 368 0 CODE 0
1005 36E 0 CODE 0
1006 372 0 CODE 0
1007 376 0 CODE 0
1008 381 0 CODE 0
1009 38C 0 CODE 0
1010 397 0 CODE 0
1011 3A2 0 CODE 0
1012 3AD 0 CODE 0
1013 3B8 0 CODE 0
1014 3C3 0 CODE 0
1015 3CE 0 CODE 0
1016 3D9 0 CODE 0
1017 3E4 0 CODE 0
1018 3EF 0 CODE 0
1019 3FA 0 CODE 0
1020 405 0 CODE 0
1021 410 0 CODE 0
1022 41B 0 CODE 0
1023 426 0 CODE 0
1024 431 0 CODE 0
1025 43C 0 CODE 0
1026 447 0 CODE 0
1027 452 0 CODE 0
1028 457 0 CODE 0
1029 457 0 CODE 0
1030 458 0 CODE 0
1031 458 0 CODE 0
1032 45F 0 CODE 0
1034 465 0 CODE 0
1035 46D 0 CODE 0
1036 476 0 CODE 0
1037 47F 0 CODE 0
1038 488 0 CODE 0
1040 491 0 CODE 0
1041 49A 0 CODE 0
1042 4A3 0 CODE 0
1043 4AC 0 CODE 0
1044 4B5 0 CODE 0
1046 4BE 0 CODE 0
1047 4C7 0 CODE 0
1048 4D0 0 CODE 0
1049 4D9 0 CODE 0
1050 4E2 0 CODE 0
1052 4EB 0 CODE 0
1053 4F4 0 CODE 0
1054 4FD 0 CODE 0
1055 506 0 CODE 0
1056 50F 0 CODE 0
1057 518 0 CODE 0
1058 51B 0 CODE 0
1059 51F 0 CODE 0
1060 523 0 CODE 0
1061 527 0 CODE 0
1062 52C 0 CODE 0
1063 52C 0 CODE 0
1064 52D 0 CODE 0
1065 52D 0 CODE 0
1066 534 0 CODE 0
1068 53A 0 CODE 0
1069 53E 0 CODE 0
1070 542 0 CODE 0
1071 547 0 CODE 0
1072 54C 0 CODE 0
1073 551 0 CODE 0
1074 556 0 CODE 0
1075 55B 0 CODE 0
1076 55B 0 CODE 0
1077 55C 0 CODE 0
1078 55C 0 CODE 0
1079 563 0 CODE 0
1080 56A 0 CODE 0
1082 570 0 CODE 0
1083 574 0 CODE 0
1084 578 0 CODE 0
1085 58C 0 CODE 0
1086 591 0 CODE 0
1088 591 0 CODE 0
1089 595 0 CODE 0
1090 59A 0 CODE 0
1091 59B 0 CODE 0
1092 59B 0 CODE 0
1093 59C 0 CODE 0
1094 59C 0 CODE 0
1095 5A3 0 CODE 0
1096 5AD 0 CODE 0
1097 5B4 0 CODE 0
1099 5BA 0 CODE 0
1100 5BE 0 CODE 0
1101 5C2 0 CODE 0
1102 5D8 0 CODE 0
1103 5DD 0 CODE 0
1105 5DD 0 CODE 0
1106 5E1 0 CODE 0
1107 5E6 0 CODE 0
1108 5E7 0 CODE 0
1109 5E7 0 CODE 0
1110 5E8 0 CODE 0
1111 5E8 0 CODE 0
1112 5E9 0 CODE 0
1113 5E9 0 CODE 0
1114 5EA 0 CODE 0
1118 627 0 CODE 0
1119 628 0 CODE 0
1122 628 0 CODE 0
1124 629 0 CODE 0
1126 629 0 CODE 0
1127 65D 0 CODE 0
1129 660 0 CODE 0
1132 666 0 CODE 0
1134 66F 0 CODE 0
1135 688 0 CODE 0
1136 6A1 0 CODE 0
1137 6BA 0 CODE 0
1138 6D3 0 CODE 0
1139 6EC 0 CODE 0
1140 70B 0 CODE 0
1141 713 0 CODE 0
1142 714 0 CODE 0
1144 714 0 CODE 0
1146 71A 0 CODE 0
1147 733 0 CODE 0
1148 74C 0 CODE 0
1149 765 0 CODE 0
1150 77E 0 CODE 0
1151 797 0 CODE 0
1152 7B3 0 CODE 0
1154 7B3 0 CODE 0
1155 7C6 0 CODE 0
1156 7CA 0 CODE 0
mcc_generated_files/eusart.c
108 1A04 0 CODE 0
110 1A04 0 CODE 0
111 1A06 0 CODE 0
118 1D84 0 CODE 0
120 1D84 0 CODE 0
122 1D86 0 CODE 0
124 1D88 0 CODE 0
122 1D88 0 CODE 0
126 1D8E 0 CODE 0
127 1D9B 0 CODE 0
129 1DA1 0 CODE 0
130 1DA3 0 CODE 0
131 1DA3 0 CODE 0
132 1DA5 0 CODE 0
133 1DA7 0 CODE 0
135 1DA8 0 CODE 0
136 1DAB 0 CODE 0
main.c
688 80F 0 CODE 0
690 80F 0 CODE 0
692 81D 0 CODE 0
693 820 0 CODE 0
694 820 0 CODE 0
695 833 0 CODE 0
697 839 0 CODE 0
698 853 0 CODE 0
699 86D 0 CODE 0
700 887 0 CODE 0
701 8A1 0 CODE 0
702 8BB 0 CODE 0
703 8D9 0 CODE 0
704 8DD 0 CODE 0
705 8E2 0 CODE 0
1158 1AD9 0 CODE 0
1160 1AD9 0 CODE 0
1161 1ADD 0 CODE 0
1162 1AE1 0 CODE 0
1163 1AE5 0 CODE 0
mcc_generated_files/eusart.c
138 801 0 CODE 0
140 803 0 CODE 0
142 804 0 CODE 0
140 804 0 CODE 0
144 80A 0 CODE 0
145 80E 0 CODE 0
/opt/microchip/xc8/v2.00/pic/sources/c99/common/awdiv.c
5 120C 0 CODE 0
13 120C 0 CODE 0
14 120E 0 CODE 0
15 1212 0 CODE 0
16 1217 0 CODE 0
17 121A 0 CODE 0
18 121A 0 CODE 0
19 121E 0 CODE 0
20 1223 0 CODE 0
21 1228 0 CODE 0
22 1228 0 CODE 0
23 122A 0 CODE 0
24 1230 0 CODE 0
25 1232 0 CODE 0
26 1233 0 CODE 0
27 1238 0 CODE 0
28 123D 0 CODE 0
25 123D 0 CODE 0
29 1243 0 CODE 0
30 1243 0 CODE 0
31 1248 0 CODE 0
32 1252 0 CODE 0
33 1256 0 CODE 0
34 1258 0 CODE 0
35 1258 0 CODE 0
36 125D 0 CODE 0
37 1265 0 CODE 0
38 1265 0 CODE 0
39 126A 0 CODE 0
40 1270 0 CODE 0
41 1275 0 CODE 0
main.c
723 16F0 0 CODE 0
725 16F0 0 CODE 0
727 16F7 0 CODE 0
728 1702 0 CODE 0
729 170E 0 CODE 0
730 171A 0 CODE 0
731 1726 0 CODE 0
732 1732 0 CODE 0
733 1733 0 CODE 0
735 173A 0 CODE 0
736 1745 0 CODE 0
737 1751 0 CODE 0
738 175D 0 CODE 0
739 1769 0 CODE 0
740 1775 0 CODE 0
741 1776 0 CODE 0
743 177D 0 CODE 0
744 1788 0 CODE 0
745 1794 0 CODE 0
746 17A0 0 CODE 0
747 17AC 0 CODE 0
748 17B8 0 CODE 0
749 17B9 0 CODE 0
751 17C0 0 CODE 0
752 17CB 0 CODE 0
753 17D7 0 CODE 0
754 17E3 0 CODE 0
755 17EF 0 CODE 0
756 17FC 0 CODE 0
757 17FF 0 CODE 0
790 12E3 0 CODE 0
792 12E3 0 CODE 0
793 12F2 0 CODE 0
794 1300 0 CODE 0
795 130E 0 CODE 0
797 131C 0 CODE 0
799 1332 0 CODE 0
800 135A 0 CODE 0
801 135B 0 CODE 0
802 135B 0 CODE 0
804 135E 0 CODE 0
805 1361 0 CODE 0
806 1364 0 CODE 0
679 7CB 0 CODE 0
681 7CB 0 CODE 0
682 7D7 0 CODE 0
683 7E3 0 CODE 0
684 7EF 0 CODE 0
685 7FD 0 CODE 0
656 1FAC 0 CODE 0
658 1FAC 0 CODE 0
659 1FBF 0 CODE 0
660 1FDD 0 CODE 0
661 1FFF 0 CODE 0
/opt/microchip/xc8/v2.00/pic/sources/c99/common/lwmod.c
5 1E42 0 CODE 0
12 1E42 0 CODE 0
13 1E49 0 CODE 0
14 1E4B 0 CODE 0
15 1E4C 0 CODE 0
16 1E51 0 CODE 0
17 1E56 0 CODE 0
14 1E56 0 CODE 0
18 1E5C 0 CODE 0
19 1E5C 0 CODE 0
20 1E66 0 CODE 0
21 1E6B 0 CODE 0
22 1E70 0 CODE 0
23 1E78 0 CODE 0
24 1E78 0 CODE 0
25 1E7D 0 CODE 0
/opt/microchip/xc8/v2.00/pic/sources/c99/common/lwdiv.c
5 1EC2 0 CODE 0
13 1EC2 0 CODE 0
14 1EC5 0 CODE 0
15 1ECB 0 CODE 0
16 1ECD 0 CODE 0
17 1ECE 0 CODE 0
18 1ED3 0 CODE 0
19 1ED8 0 CODE 0
16 1ED8 0 CODE 0
20 1EDE 0 CODE 0
21 1EDE 0 CODE 0
22 1EE3 0 CODE 0
23 1EED 0 CODE 0
24 1EF1 0 CODE 0
25 1EF3 0 CODE 0
26 1EF3 0 CODE 0
27 1EF8 0 CODE 0
28 1F00 0 CODE 0
29 1F00 0 CODE 0
30 1F05 0 CODE 0
/opt/microchip/xc8/v2.00/pic/sources/c99/common/Umul16.c
15 1CCE 0 CODE 0
43 1CCE 0 CODE 0
44 1CD2 0 CODE 0
45 1CD2 0 CODE 0
46 1CD6 0 CODE 0
47 1CDA 0 CODE 0
48 1CDF 0 CODE 0
49 1CE4 0 CODE 0
52 1CEB 0 CODE 0
53 1CF0 0 CODE 0
main.c
761 149B 0 CODE 0
763 149B 0 CODE 0
764 14AA 0 CODE 0
765 14B8 0 CODE 0
766 14C6 0 CODE 0
767 14D4 0 CODE 0
768 14E2 0 CODE 0
770 14F0 0 CODE 0
772 1512 0 CODE 0
773 1519 0 CODE 0
774 1521 0 CODE 0
775 1526 0 CODE 0
776 152D 0 CODE 0
777 1532 0 CODE 0
778 1533 0 CODE 0
780 1533 0 CODE 0
781 1538 0 CODE 0
782 153C 0 CODE 0
783 1540 0 CODE 0
784 1544 0 CODE 0
785 1547 0 CODE 0
786 1547 0 CODE 0
787 154A 0 CODE 0
709 1038 0 CODE 0
712 1038 0 CODE 0
713 1046 0 CODE 0
714 1054 0 CODE 0
715 1060 0 CODE 0
716 106E 0 CODE 0
717 107A 0 CODE 0
719 108C 0 CODE 0
mcc_generated_files/memory.c
180 1D38 0 CODE 0
182 1D38 0 CODE 0
184 1D3D 0 CODE 0
185 1D40 0 CODE 0
186 1D44 0 CODE 0
187 1D48 0 CODE 0
188 1D49 0 CODE 0
189 1D4A 0 CODE 0
190 1D4B 0 CODE 0
191 1D4D 0 CODE 0
192 1D4F 0 CODE 0
194 1D50 0 CODE 0
196 1D51 0 CODE 0
194 1D51 0 CODE 0
198 1D55 0 CODE 0
199 1D56 0 CODE 0
200 1D5C 0 CODE 0
202 1B30 0 CODE 0
204 1B30 0 CODE 0
205 1B34 0 CODE 0
206 1B38 0 CODE 0
207 1B39 0 CODE 0
208 1B3A 0 CODE 0
209 1B3B 0 CODE 0
211 1B3C 0 CODE 0
212 1B3F 0 CODE 0
mcc_generated_files/i2c1_driver.c
83 1B20 0 CODE 0
85 1B20 0 CODE 0
87 1B25 0 CODE 0
88 1B26 0 CODE 0
89 1B28 0 CODE 0
90 1B29 0 CODE 0
91 1B2C 0 CODE 0
92 1B2D 0 CODE 0
93 1B2E 0 CODE 0
94 1B2E 0 CODE 0
95 1B2F 0 CODE 0
/opt/microchip/xc8/v2.00/pic/sources/c99/common/xxtofl.c
10 154B 0 CODE 0
15 154D 0 CODE 0
16 1556 0 CODE 0
17 1565 0 CODE 0
18 1566 0 CODE 0
19 1566 0 CODE 0
20 156E 0 CODE 0
21 156E 0 CODE 0
22 1576 0 CODE 0
23 1580 0 CODE 0
24 1584 0 CODE 0
25 1585 0 CODE 0
26 1589 0 CODE 0
27 1591 0 CODE 0
24 1591 0 CODE 0
28 1598 0 CODE 0
29 1599 0 CODE 0
30 159D 0 CODE 0
31 15A5 0 CODE 0
32 15AC 0 CODE 0
28 15AC 0 CODE 0
33 15B3 0 CODE 0
34 15B4 0 CODE 0
35 15B6 0 CODE 0
36 15BE 0 CODE 0
33 15BE 0 CODE 0
37 15C9 0 CODE 0
38 15CD 0 CODE 0
39 15D5 0 CODE 0
40 15D7 0 CODE 0
41 15EB 0 CODE 0
42 15F4 0 CODE 0
43 15F6 0 CODE 0
44 15FF 0 CODE 0
mcc_generated_files/tmr2.c
116 1A17 0 CODE 0
118 1A17 0 CODE 0
119 1A1A 0 CODE 0
110 1A01 0 CODE 0
113 1A01 0 CODE 0
114 1A03 0 CODE 0
mcc_generated_files/tmr1.c
99 19FE 0 CODE 0
102 19FE 0 CODE 0
103 1A00 0 CODE 0
mcc_generated_files/mcc.c
50 1C71 0 CODE 0
52 1C71 0 CODE 0
53 1C74 0 CODE 0
54 1C77 0 CODE 0
55 1C7A 0 CODE 0
56 1C7D 0 CODE 0
57 1C80 0 CODE 0
58 1C83 0 CODE 0
59 1C86 0 CODE 0
60 1C89 0 CODE 0
61 1C8C 0 CODE 0
mcc_generated_files/tmr2.c
66 1BDB 0 CODE 0
71 1BDB 0 CODE 0
74 1BDE 0 CODE 0
77 1BDF 0 CODE 0
80 1BE0 0 CODE 0
83 1BE2 0 CODE 0
86 1BE3 0 CODE 0
89 1BE5 0 CODE 0
92 1BE6 0 CODE 0
95 1BEE 0 CODE 0
96 1BF1 0 CODE 0
180 1AB1 0 CODE 0
181 1AB1 0 CODE 0
182 1AB9 0 CODE 0
mcc_generated_files/tmr1.c
64 1C8D 0 CODE 0
69 1C8D 0 CODE 0
72 1C8F 0 CODE 0
75 1C90 0 CODE 0
78 1C92 0 CODE 0
81 1C94 0 CODE 0
84 1C96 0 CODE 0
87 1C9D 0 CODE 0
90 1C9F 0 CODE 0
93 1CA0 0 CODE 0
96 1CA8 0 CODE 0
97 1CAB 0 CODE 0
178 1AA8 0 CODE 0
179 1AA8 0 CODE 0
180 1AB0 0 CODE 0
mcc_generated_files/pwm6.c
58 1ACE 0 CODE 0
62 1ACE 0 CODE 0
65 1AD1 0 CODE 0
68 1AD2 0 CODE 0
71 1AD3 0 CODE 0
72 1AD8 0 CODE 0
mcc_generated_files/mcc.c
77 1A6A 0 CODE 0
80 1A6A 0 CODE 0
82 1A6C 0 CODE 0
84 1A6D 0 CODE 0
86 1A6E 0 CODE 0
88 1A6F 0 CODE 0
90 1A70 0 CODE 0
91 1A71 0 CODE 0
mcc_generated_files/pin_manager.c
57 1E7E 0 CODE 0
62 1E7E 0 CODE 0
63 1E80 0 CODE 0
64 1E81 0 CODE 0
65 1E82 0 CODE 0
66 1E83 0 CODE 0
71 1E84 0 CODE 0
72 1E86 0 CODE 0
73 1E88 0 CODE 0
74 1E8A 0 CODE 0
75 1E8C 0 CODE 0
80 1E8E 0 CODE 0
81 1E91 0 CODE 0
82 1E93 0 CODE 0
83 1E95 0 CODE 0
84 1E97 0 CODE 0
89 1E99 0 CODE 0
90 1E9A 0 CODE 0
91 1E9B 0 CODE 0
92 1E9C 0 CODE 0
93 1E9D 0 CODE 0
98 1E9F 0 CODE 0
99 1EA0 0 CODE 0
100 1EA1 0 CODE 0
101 1EA2 0 CODE 0
102 1EA3 0 CODE 0
107 1EA4 0 CODE 0
108 1EA6 0 CODE 0
109 1EA8 0 CODE 0
110 1EAA 0 CODE 0
111 1EAC 0 CODE 0
120 1EAE 0 CODE 0
121 1EB1 0 CODE 0
122 1EB3 0 CODE 0
123 1EB5 0 CODE 0
124 1EB8 0 CODE 0
125 1EBA 0 CODE 0
126 1EBC 0 CODE 0
127 1EBE 0 CODE 0
128 1EC1 0 CODE 0
mcc_generated_files/mcc.c
63 1A9F 0 CODE 0
66 1A9F 0 CODE 0
68 1AA2 0 CODE 0
70 1AA3 0 CODE 0
72 1AA4 0 CODE 0
74 1AA6 0 CODE 0
75 1AA7 0 CODE 0
mcc_generated_files/ext_int.c
62 1B02 0 CODE 0
67 1B02 0 CODE 0
68 1B04 0 CODE 0
70 1B05 0 CODE 0
71 1B0D 0 CODE 0
73 1B0F 0 CODE 0
51 1A96 0 CODE 0
52 1A96 0 CODE 0
53 1A9E 0 CODE 0
mcc_generated_files/eusart.c
71 1C56 0 CODE 0
74 1C56 0 CODE 0
75 1C58 0 CODE 0
79 1C60 0 CODE 0
82 1C63 0 CODE 0
85 1C65 0 CODE 0
88 1C67 0 CODE 0
91 1C69 0 CODE 0
95 1C6A 0 CODE 0
96 1C6C 0 CODE 0
97 1C6D 0 CODE 0
100 1C6E 0 CODE 0
101 1C70 0 CODE 0
179 1A8D 0 CODE 0
180 1A8D 0 CODE 0
181 1A95 0 CODE 0
mcc_generated_files/adcc.c
63 1BC5 0 CODE 0
67 1BC5 0 CODE 0
69 1BC7 0 CODE 0
71 1BC8 0 CODE 0
73 1BC9 0 CODE 0
75 1BCA 0 CODE 0
77 1BCB 0 CODE 0
79 1BCC 0 CODE 0
81 1BCD 0 CODE 0
83 1BCF 0 CODE 0
85 1BD0 0 CODE 0
87 1BD1 0 CODE 0
89 1BD2 0 CODE 0
91 1BD3 0 CODE 0
93 1BD4 0 CODE 0
95 1BD5 0 CODE 0
97 1BD6 0 CODE 0
99 1BD7 0 CODE 0
101 1BD9 0 CODE 0
104 1BDA 0 CODE 0
130 1C0A 0 CODE 0
133 1C0C 0 CODE 0
136 1C0F 0 CODE 0
139 1C10 0 CODE 0
142 1C11 0 CODE 0
145 1C12 0 CODE 0
148 1C13 0 CODE 0
150 1C14 0 CODE 0
148 1C14 0 CODE 0
154 1C1A 0 CODE 0
155 1C22 0 CODE 0
mcc_generated_files/interrupt_manager.c
52 4 0 CODE 0
55 6 0 CODE 0
57 F 0 CODE 0
58 12 0 CODE 0
59 13 0 CODE 0
61 17 0 CODE 0
63 1F 0 CODE 0
64 25 0 CODE 0
65 26 0 CODE 0
67 2E 0 CODE 0
68 34 0 CODE 0
69 35 0 CODE 0
71 3D 0 CODE 0
72 43 0 CODE 0
73 44 0 CODE 0
75 4C 0 CODE 0
76 4F 0 CODE 0
77 50 0 CODE 0
79 58 0 CODE 0
80 5B 0 CODE 0
81 5C 0 CODE 0
84 5D 0 CODE 0
85 61 0 CODE 0
86 62 0 CODE 0
89 63 0 CODE 0
90 64 0 CODE 0
mcc_generated_files/drivers/i2c_master.c
435 1A13 0 CODE 0
437 1A13 0 CODE 0
438 1A16 0 CODE 0
mcc_generated_files/i2c1_driver.c
253 19FB 0 CODE 0
255 19FB 0 CODE 0
256 19FD 0 CODE 0
mcc_generated_files/drivers/i2c_master.c
419 1DAC 0 CODE 0
421 1DAC 0 CODE 0
427 1DAF 0 CODE 0
429 1DBB 0 CODE 0
430 1DC1 0 CODE 0
432 1DC1 0 CODE 0
433 1DD6 0 CODE 0
mcc_generated_files/i2c1_driver.c
53 19F8 0 CODE 0
55 19F8 0 CODE 0
56 19FA 0 CODE 0
mcc_generated_files/drivers/i2c_master.c
357 1F58 0 CODE 0
359 1F58 0 CODE 0
360 1F66 0 CODE 0
362 1F70 0 CODE 0
363 1F73 0 CODE 0
364 1F76 0 CODE 0
365 1F77 0 CODE 0
367 1F77 0 CODE 0
368 1F78 0 CODE 0
370 1F79 0 CODE 0
371 1F7A 0 CODE 0
372 1F7A 0 CODE 0
373 1F7F 0 CODE 0
374 1F80 0 CODE 0
375 1F81 0 CODE 0
376 1F81 0 CODE 0
377 1F86 0 CODE 0
379 1FAB 0 CODE 0
380 1FAB 0 CODE 0
333 10EB 0 CODE 0
335 10EB 0 CODE 0
337 10F3 0 CODE 0
339 10F4 0 CODE 0
340 10F4 0 CODE 0
341 10F9 0 CODE 0
342 10F9 0 CODE 0
343 10FE 0 CODE 0
344 10FF 0 CODE 0
345 1100 0 CODE 0
346 1100 0 CODE 0
347 1105 0 CODE 0
348 1129 0 CODE 0
349 112A 0 CODE 0
351 112A 0 CODE 0
352 112C 0 CODE 0
353 1138 0 CODE 0
354 1149 0 CODE 0
355 1149 0 CODE 0
319 1DD7 0 CODE 0
321 1DD7 0 CODE 0
322 1DD9 0 CODE 0
323 1DDD 0 CODE 0
325 1DDE 0 CODE 0
326 1DDF 0 CODE 0
327 1DDF 0 CODE 0
328 1DE4 0 CODE 0
329 1DE4 0 CODE 0
330 1DE9 0 CODE 0
331 1E07 0 CODE 0
311 1A50 0 CODE 0
313 1A50 0 CODE 0
314 1A53 0 CODE 0
315 1A55 0 CODE 0
305 1A4A 0 CODE 0
307 1A4A 0 CODE 0
308 1A4D 0 CODE 0
309 1A4F 0 CODE 0
299 1A44 0 CODE 0
301 1A44 0 CODE 0
302 1A47 0 CODE 0
303 1A49 0 CODE 0
292 1A62 0 CODE 0
294 1A62 0 CODE 0
295 1A64 0 CODE 0
296 1A67 0 CODE 0
297 1A69 0 CODE 0
285 1A84 0 CODE 0
287 1A84 0 CODE 0
288 1A86 0 CODE 0
289 1A8A 0 CODE 0
290 1A8C 0 CODE 0
278 1AC4 0 CODE 0
280 1AC4 0 CODE 0
281 1AC6 0 CODE 0
282 1ACB 0 CODE 0
283 1ACD 0 CODE 0
272 1A3E 0 CODE 0
274 1A3E 0 CODE 0
275 1A41 0 CODE 0
276 1A43 0 CODE 0
266 1A38 0 CODE 0
268 1A38 0 CODE 0
269 1A3B 0 CODE 0
270 1A3D 0 CODE 0
260 1A32 0 CODE 0
262 1A32 0 CODE 0
263 1A35 0 CODE 0
264 1A37 0 CODE 0
254 1A2C 0 CODE 0
256 1A2C 0 CODE 0
257 1A2F 0 CODE 0
258 1A31 0 CODE 0
247 1A26 0 CODE 0
249 1A26 0 CODE 0
250 1A28 0 CODE 0
251 1A29 0 CODE 0
252 1A2B 0 CODE 0
239 1A7B 0 CODE 0
241 1A7B 0 CODE 0
242 1A7E 0 CODE 0
243 1A80 0 CODE 0
244 1A81 0 CODE 0
245 1A83 0 CODE 0
382 1E08 0 CODE 0
384 1E08 0 CODE 0
385 1E0A 0 CODE 0
387 1E0B 0 CODE 0
388 1E0C 0 CODE 0
389 1E0C 0 CODE 0
390 1E11 0 CODE 0
391 1E11 0 CODE 0
392 1E14 0 CODE 0
393 1E17 0 CODE 0
394 1E18 0 CODE 0
395 1E18 0 CODE 0
396 1E1D 0 CODE 0
397 1E41 0 CODE 0
mcc_generated_files/i2c1_driver.c
58 19F5 0 CODE 0
60 19F5 0 CODE 0
61 19F7 0 CODE 0
161 1A72 0 CODE 0
163 1A72 0 CODE 0
164 1A7A 0 CODE 0
186 1A1B 0 CODE 0
188 1A1C 0 CODE 0
189 1A1F 0 CODE 0
171 1A0F 0 CODE 0
173 1A0F 0 CODE 0
174 1A12 0 CODE 0
202 1A0B 0 CODE 0
204 1A0B 0 CODE 0
205 1A0D 0 CODE 0
206 1A0E 0 CODE 0
141 7FE 0 CODE 0
144 7FE 0 CODE 0
166 19F2 0 CODE 0
168 19F2 0 CODE 0
169 19F4 0 CODE 0
mcc_generated_files/drivers/i2c_simple_master.c
134 1C3C 0 CODE 0
136 1C3C 0 CODE 0
137 1C4B 0 CODE 0
138 1C53 0 CODE 0
139 1C55 0 CODE 0
87 1B9C 0 CODE 0
89 1B9C 0 CODE 0
90 1BA4 0 CODE 0
91 1BAC 0 CODE 0
92 1BAE 0 CODE 0
58 1B89 0 CODE 0
60 1B89 0 CODE 0
61 1B91 0 CODE 0
62 1B99 0 CODE 0
63 1B9B 0 CODE 0
31 1B76 0 CODE 0
33 1B76 0 CODE 0
34 1B7E 0 CODE 0
35 1B86 0 CODE 0
36 1B88 0 CODE 0
mcc_generated_files/drivers/i2c_types.c
35 19EF 0 CODE 0
37 19EF 0 CODE 0
38 19F1 0 CODE 0
mcc_generated_files/drivers/i2c_master.c
448 19EC 0 CODE 0
450 19EC 0 CODE 0
451 19EE 0 CODE 0
443 19E9 0 CODE 0
445 19E9 0 CODE 0
446 19EB 0 CODE 0
mcc_generated_files/drivers/i2c_simple_master.c
110 1B63 0 CODE 0
112 1B63 0 CODE 0
113 1B6B 0 CODE 0
114 1B73 0 CODE 0
115 1B75 0 CODE 0
mcc_generated_files/drivers/i2c_master.c
89 1AF4 0 CODE 0
91 1AF4 0 CODE 0
92 1B01 0 CODE 0
453 1D5D 0 CODE 0
455 1D5E 0 CODE 0
457 1D64 0 CODE 0
458 1D6C 0 CODE 0
459 1D74 0 CODE 0
460 1D75 0 CODE 0
462 1D75 0 CODE 0
463 1D7D 0 CODE 0
464 1D83 0 CODE 0
465 1D83 0 CODE 0
184 1B40 0 CODE 0
186 1B41 0 CODE 0
188 1B46 0 CODE 0
189 1B4A 0 CODE 0
190 1B4E 0 CODE 0
191 1B50 0 CODE 0
192 1B50 0 CODE 0
mcc_generated_files/i2c1_driver.c
156 19E6 0 CODE 0
158 19E6 0 CODE 0
159 19E8 0 CODE 0
151 19E3 0 CODE 0
153 19E3 0 CODE 0
154 19E5 0 CODE 0
196 1A07 0 CODE 0
198 1A07 0 CODE 0
199 1A09 0 CODE 0
200 1A0A 0 CODE 0
mcc_generated_files/tmr2.c
167 1B10 0 CODE 0
171 1B10 0 CODE 0
173 1B12 0 CODE 0
175 1B19 0 CODE 0
176 1B1F 0 CODE 0
177 1B1F 0 CODE 0
184 7FF 0 CODE 0
189 7FF 0 CODE 0
mcc_generated_files/tmr1.c
164 1BF2 0 CODE 0
168 1BF2 0 CODE 0
169 1BF4 0 CODE 0
171 1BFC 0 CODE 0
173 1C03 0 CODE 0
174 1C09 0 CODE 0
175 1C09 0 CODE 0
127 1B51 0 CODE 0
129 1B51 0 CODE 0
132 1B56 0 CODE 0
135 1B57 0 CODE 0
136 1B59 0 CODE 0
139 1B5B 0 CODE 0
140 1B5C 0 CODE 0
141 1B5D 0 CODE 0
144 1B5D 0 CODE 0
145 1B5F 0 CODE 0
146 1B62 0 CODE 0
147 1B62 0 CODE 0
182 13FA 0 CODE 0
186 13FA 0 CODE 0
187 1401 0 CODE 0
188 140A 0 CODE 0
189 140E 0 CODE 0
190 1418 0 CODE 0
191 1419 0 CODE 0
192 1421 0 CODE 0
193 142E 0 CODE 0
194 1435 0 CODE 0
195 143F 0 CODE 0
196 1440 0 CODE 0
197 1448 0 CODE 0
198 1451 0 CODE 0
199 1455 0 CODE 0
200 145F 0 CODE 0
201 1460 0 CODE 0
202 1468 0 CODE 0
203 1471 0 CODE 0
204 1475 0 CODE 0
205 147F 0 CODE 0
206 1480 0 CODE 0
207 1487 0 CODE 0
208 148A 0 CODE 0
209 148C 0 CODE 0
210 148E 0 CODE 0
211 1491 0 CODE 0
212 1495 0 CODE 0
213 149A 0 CODE 0
mcc_generated_files/pwm6.c
74 1BAF 0 CODE 0
77 1BAF 0 CODE 0
80 1BBA 0 CODE 0
81 1BC4 0 CODE 0
mcc_generated_files/ext_int.c
33 1A20 0 CODE 0
35 1A20 0 CODE 0
38 1A22 0 CODE 0
39 1A25 0 CODE 0
42 1AE6 0 CODE 0
45 1AE6 0 CODE 0
47 1AED 0 CODE 0
48 1AF3 0 CODE 0
49 1AF3 0 CODE 0
55 1ABA 0 CODE 0
58 1ABA 0 CODE 0
59 1ABC 0 CODE 0
60 1AC3 0 CODE 0
mcc_generated_files/eusart.c
158 1CAC 0 CODE 0
161 1CAC 0 CODE 0
165 1CB1 0 CODE 0
166 1CB2 0 CODE 0
167 1CB4 0 CODE 0
170 1CB4 0 CODE 0
171 1CC1 0 CODE 0
173 1CC7 0 CODE 0
174 1CC9 0 CODE 0
175 1CC9 0 CODE 0
176 1CCD 0 CODE 0
